{
  "Sacile": {
    "sindaco": {
      "schede_bianche": 91,
      "schede_nulle": 94,
      "voti_contestati": 4,
      "voti_validi": {
        "CARLO SPAGNOL": {
          "voti": 5341,
          "liste_collegate": [
            "VIVA SACILE SPAGNOL SINDACO",
            "FORZA ITALIA"
          ]
        },
        "ALBERTO GOTTARDO": {
          "voti": 2602,
          "liste_collegate": [
            "IL POPOLO DELLA FAMIGLIA",
            "'AUTONOMIA RESPONSABILE CON TONDO PER ALBERTO GOTTARDO'",
            "LEGA NORD",
            "ATTIVASACILE",
            "FRATELLI D'ITALIA - ALLEANZA NAZIONALE",
            "CIVICA PER SACILE - ALBERTO GOTTARDO SINDACO"
          ]
        }
      }
    },
    "affluenza": {
      "votanti": 8132,
      "elettori": 17005
    }
  },
  "Udine": {
    "sindaco": {
      "schede_bianche": 153,
      "schede_nulle": 382,
      "voti_contestati": 5,
      "voti_validi": {
        "PIETRO FONTANINI": {
          "voti": 18830,
          "liste_collegate": [
            "FORZA ITALIA",
            "AUTONOMIA RESPONSABILE",
            "IDENTITA' CIVICA",
            "LEGA NORD",
            "FRATELLI D'ITALIA - ALLEANZA NAZIONALE"
          ]
        },
        "VINCENZO MARTINES": {
          "voti": 18550,
          "liste_collegate": [
            "UDINE SINISTRAPERTA",
            "SIAMO UDINE CON MARTINES",
            "PROGETTO INNOVARE",
            "PARTITO DEMOCRATICO - MARTINES SINDACO"
          ]
        }
      }
    },
    "affluenza": {
      "votanti": 37920,
      "elettori": 80341
    }
  }
}