{
  "Brugnera": {
    "sindaco": {
      "schede_bianche": 80,
      "schede_nulle": 61,
      "voti_contestati": 0,
      "voti_validi": {
        "RENZO DOLFI": {
          "voti": 2593,
          "liste_collegate": [
            "LISTA CIVICA - PER BRUGNERA",
            "IMPEGNO PER MIGLIORARE"
          ]
        },
        "MICHELE SASSU": {
          "voti": 1852,
          "liste_collegate": [
            "BRUGNERA AL CENTRO"
          ]
        }
      }
    },
    "affluenza": {
      "votanti": 4586,
      "elettori": 7856
    },
    "liste": {
      "voti_contestati": 0,
      "voti_validi": {
        "LISTA CIVICA - PER BRUGNERA": {
          "voti": 1838,
          "preferenze": {
            "MICHELE BOER": 281,
            "PAOLA COVRE": 184,
            "MAURIZIO FOLTRAN": 167,
            "GIANNI ROSSETTO": 165,
            "CRISTINA LUCCHESE": 120,
            "ERIKA PAPES": 115,
            "FABIO STEFANI": 108,
            "ELISA CORAZZA": 59,
            "DANIELE ZANETTE": 51,
            "FEDERICO SANTIN": 16,
            "GIOVANNI TOFFOLI": 8,
            "GLORIA CALLARELLI": 5
          }
        },
        "BRUGNERA AL CENTRO": {
          "voti": 1615,
          "preferenze": {
            "ELISA PICCIN": 202,
            "MARZIA FILIPETTO": 146,
            "EDIS PIVETTA": 133,
            "GIACOMO BAZZO": 131,
            "FIORENZO GAVA": 119,
            "CINZIA SECCO": 117,
            "MICHELE PUTIGNANO": 113,
            "ANTONELLA SANDRIN": 106,
            "STEFANO ANTONEL": 100,
            "PAOLO VERARDO": 93,
            "LORENZO SAVINELLI": 87,
            "MERI POLES": 64,
            "STEFANO CORAZZA": 52,
            "LUCIANO SANTAROSSA": 24,
            "DANIEL FLOREAN": 12,
            "GASPARE MARINO": 8
          }
        },
        "IMPEGNO PER MIGLIORARE": {
          "voti": 189,
          "preferenze": {
            "SILVIA PIOVESANA": 46,
            "ADRIANO PIOVESANA": 35,
            "CELIO MORAS": 18,
            "LUCA DA FRE'": 16,
            "LORY MARTIGNAGO": 16,
            "NICOLA DE NARDI": 12,
            "BARBARA PIVETTA": 12,
            "GIORGIO DEL BEN": 10,
            "SIMONE CARNELOS": 9,
            "PAOLO PIVETTA": 9,
            "SUSANNA CAUSERO": 6
          }
        }
      }
    }
  },
  "Faedis": {
    "sindaco": {
      "schede_bianche": 16,
      "schede_nulle": 19,
      "voti_contestati": 0,
      "voti_validi": {
        "CLAUDIO ZANI": {
          "voti": 845,
          "liste_collegate": [
            "LISTA CIVICA \"COMUNE DI FAEDIS\"",
            "LISTA INTESA"
          ]
        },
        "ELENA BERTOSSI": {
          "voti": 811,
          "liste_collegate": [
            "AL SERVIZIO DEI CITTADINI - PER UN NUOVO FAEDIS",
            "IMPEGNO PER I CITTADINI"
          ]
        }
      }
    },
    "affluenza": {
      "votanti": 1691,
      "elettori": 3089
    },
    "liste": {
      "voti_contestati": 0,
      "voti_validi": {
        "LISTA INTESA": {
          "voti": 345,
          "preferenze": {
            "SIMONE GRANDO": 109,
            "GILDA SPOLLERO": 75,
            "ROBERTA FATTOR": 47,
            "MARCO LONDERO": 39,
            "SAMANTA ROSSI": 32,
            "LUCA LEONE": 26,
            "RENATO TOPATIGH": 22,
            "FRANCESCO ZANI": 19,
            "MAVI CECINO": 14,
            "ELIDE DE LUCA": 14,
            "MARIANO BULFONE": 13,
            "ACHILLE GAUDIO": 6,
            "SILVANO CRACINA": 4
          }
        },
        "AL SERVIZIO DEI CITTADINI - PER UN NUOVO FAEDIS": {
          "voti": 344,
          "preferenze": {
            "LUCIANO PALMIERI": 54,
            "TIZIANA VISENTIN": 53,
            "MARCO RIZZI": 46,
            "ANDREA DASSI": 29,
            "GABRIELE BERTOLUTTI": 19,
            "MAURIZIO D'ANDREA": 17,
            "ALESSANDRO BUIATTI": 15,
            "MANUEL MONACHELLO": 7,
            "MICHELA STEFFANI": 5,
            "SIMON BERTOLUTTI": 3,
            "GRAZIANO IURI": 2,
            "DINO RONCHI": 2,
            "PARTINI SRI": 2
          }
        },
        "LISTA CIVICA \"COMUNE DI FAEDIS\"": {
          "voti": 271,
          "preferenze": {
            "SARA POIANA": 46,
            "MARINO PERABO'": 41,
            "CARLA FIORITTO": 34,
            "MAURO CAVALLO": 26,
            "ANNALISA PATUSSO": 22,
            "MAURO MARCARINI": 17,
            "GIUSEPPE D'ONOFRIO": 14,
            "MICHEL PINOSIO": 10,
            "ANDREA STURMIGH": 10,
            "RINA BERTOLUTTI": 9,
            "DANIELA LORENZUTTI": 9,
            "PAOLO GIOVAGNOLI": 4,
            "ARMANDO GALVANI": 2
          }
        },
        "IMPEGNO PER I CITTADINI": {
          "voti": 228,
          "preferenze": {
            "DARIO PETRIGH": 39,
            "ALEX LAZZARO": 30,
            "FEDERICA ZIZALA": 28,
            "ALESSIO CIRANDI": 25,
            "CLARA BERTOSSI": 21,
            "ANDREA TOFFOLETTI": 17,
            "EMANUELA GIAIOTTI": 15,
            "ALESSIO SGUALDINO": 10,
            "GABRIELE GRIMAZ": 9,
            "FABRIZIO TOMAT": 9,
            "STEFANO LONDERO": 6,
            "LINA IURI": 6,
            "ANDREA MAURO": 3
          }
        }
      }
    }
  },
  "Fiume Veneto": {
    "sindaco": {
      "schede_bianche": 44,
      "schede_nulle": 115,
      "voti_contestati": 0,
      "voti_validi": {
        "JESSICA CANTON": {
          "voti": 2510,
          "liste_collegate": [
            "POTERE AI CITTADINI",
            "LEGA NORD",
            "FORZA ITALIA",
            "FLUMEN"
          ]
        },
        "MANUEL GIACOMAZZI": {
          "voti": 1675,
          "liste_collegate": [
            "LISTA CIVICA MANUEL GIACOMAZZI SINDACO",
            "CENTRO DESTRA PER FIUME VENETO GIACOMAZZI SINDACO FRATELLI D\u2019ITALIA -ALLEANZA NAZIONALE",
            "GENTE COMUNE PER FIUME VENETO"
          ]
        },
        "ANNALISA PARPINELLI": {
          "voti": 1218,
          "liste_collegate": [
            "PARTITO DEMOCRATICO",
            "FIUME FUTURA ANNALISA PARPINELLI SINDACO"
          ]
        },
        "TIZIANO CASARI": {
          "voti": 628,
          "liste_collegate": [
            "MOVIMENTO 5 STELLE"
          ]
        }
      }
    },
    "affluenza": {
      "votanti": 6190,
      "elettori": 10490
    },
    "liste": {
      "voti_contestati": 0,
      "voti_validi": {
        "LEGA NORD": {
          "voti": 918,
          "preferenze": {
            "CARLO BENITO CEOLIN": 25,
            "MAURIZIO RAMPONI": 16,
            "FEDERICO ZOPPI": 15,
            "FULVIO DRAGO": 12,
            "DENISE CIPOLAT": 9,
            "ROBERTO VIERA": 8,
            "SABRINA CELANTE": 5,
            "ANDREAS SEDRAN MAZZON": 4,
            "FEDERICO FANTIN": 3,
            "GIADA GIANNELLI": 3,
            "ANGELO SARTORI": 2,
            "JESSICA MIANO": 1,
            "MONICA MANFE'": 1,
            "GIORGIO SUSENNA": 0,
            "FEDERICO MORELLO": 0
          }
        },
        "FLUMEN": {
          "voti": 829,
          "preferenze": {
            "SARA PEZZUTTI": 150,
            "DONATELLA AZZARETTI": 113,
            "MICHELE CIEOL": 92,
            "STEFANO MUTTON": 84,
            "ROBERTO CORAI": 79,
            "ALESSANDRO ZANNESE": 73,
            "STEFANO BIASOTTO": 48,
            "MARCO BERTOLDO": 34,
            "GIUSEPPE DINO BASSO": 29,
            "VANIA MARTIN": 23,
            "NADIA STELLA": 22,
            "DANIELE BOZZO": 16,
            "ALAN OLIVO": 15,
            "EDI DAINESE": 13,
            "LIVIANA PELOI": 0
          }
        },
        "LISTA CIVICA MANUEL GIACOMAZZI SINDACO": {
          "voti": 707,
          "preferenze": {
            "ALESSANDRO PIGNAT": 89,
            "ELENA ZANNIER": 60,
            "DAVIDE MORSON": 54,
            "EMANUELA MUCIGNAT": 53,
            "MARIO SARTOR": 51,
            "FEDERICA MUZZATTI": 50,
            "MASSIMO ANTONIO SIST": 49,
            "ELISA ZANCHETTA": 48,
            "MAURIZIO ROSALEN": 44,
            "ALESSIO PROSSER": 30,
            "KATYA FABBRETTO": 23,
            "PAOLA VISENTIN": 23,
            "ALESSANDRO ARNOLDI": 21,
            "GINO DI BENEDETTO": 12,
            "DORIS AZZALINI": 6,
            "WALTER FORABOSCHI": 4
          }
        },
        "PARTITO DEMOCRATICO": {
          "voti": 611,
          "preferenze": {
            "LORIS PADOANI": 53,
            "MAURO PIVA": 52,
            "STEFANIA DE TINA": 49,
            "EDDY FACCA": 36,
            "VALENTINA SPARAVIER": 35,
            "PAOLO ANGELO GORGATTI": 26,
            "GIUSEPPE SPINAZZE'": 24,
            "GIULIO PIGHIN": 16,
            "ELISA FAMEA": 14,
            "PATRIZIA MORELLO": 10,
            "ROBERTO ZANUSSO": 8,
            "LEONARDO PALMERI": 7,
            "ALESSANDRA EUGENIA ZANIN": 7,
            "ALBERTO OLIVIERI": 4,
            "DAVIDE PASETTO": 3,
            "PAOLA PUIATTI": 2
          }
        },
        "MOVIMENTO 5 STELLE": {
          "voti": 478,
          "preferenze": {
            "PAOLO CAMPANERUT": 50,
            "MONICA SANTAROSSA": 44,
            "ALEX ZANCHETTA": 30,
            "IVANA MARIA FURLAN": 16,
            "SANDRO MANCINI": 14,
            "VANNI BURIGAT": 10,
            "SONIA PEGORARO": 7,
            "DONATELLA VISCOGLIOSI": 6,
            "TIZIANO DALPIAZ": 6,
            "DARIO DE IOANNON": 4,
            "MIRILIAN SANCHEZ": 4,
            "GIANCARLO COMINATO": 3,
            "GLORIA CANDOSIN": 2,
            "EDOARDO VANZI": 1
          }
        },
        "CENTRO DESTRA PER FIUME VENETO GIACOMAZZI SINDACO FRATELLI D\u2019ITALIA -ALLEANZA NAZIONALE": {
          "voti": 425,
          "preferenze": {
            "STEFANO BABUIN": 84,
            "LUANA BREDA": 71,
            "ROBERTA VISINTIN": 45,
            "PAOLO FRACASSI": 44,
            "GABRIELE PITTANA": 27,
            "DEBORA MANZON": 15,
            "MARGHERITA BORTELLI": 8,
            "MASSIMO BERTON": 4,
            "TIZIANO DAINESE": 4,
            "SILVIO SUSA": 2,
            "AMEDEO LA DIEGA": 0,
            "GIOVANNI FRAPPOLA": 0,
            "ALESSANDRA RUSSO": 0,
            "CHIARA BERTOLDI": 0
          }
        },
        "FIUME FUTURA ANNALISA PARPINELLI SINDACO": {
          "voti": 349,
          "preferenze": {
            "DIEGO BOZZO": 53,
            "FABIO ALESSANDRO TONUS": 49,
            "ELENA RIZZO": 28,
            "SILVIA PERESSUTTI": 24,
            "FULVIO MASCARIN": 22,
            "MATTIA BIANCO": 21,
            "EMILIANO GIANNI MIORIN": 20,
            "SABAH MESSAOUDI": 17,
            "FIORELLA PICCIN": 17,
            "LORENZA PALAMIDESSI": 16,
            "ANTONELLA BUREL": 12,
            "IGOR GIORA": 10,
            "IOANA MAZZON": 10,
            "MICHELE TOMASELLA": 7,
            "ROBERTO ZORAT": 7,
            "FERDINANDO PRAMPARO": 5,
            "ANDREEA LUMINITA POPESCU": 1
          }
        },
        "GENTE COMUNE PER FIUME VENETO": {
          "voti": 169,
          "preferenze": {
            "VANDA PIN": 89,
            "GIANLUCA ZUCCATO": 39,
            "MAURIZIO SIMONIN": 26,
            "GAETANO BERTOLDO": 16,
            "CRISTINA BIRAL": 14,
            "GIUSEPPE TURRI": 12,
            "NICOLA SEGATO": 11,
            "IRIS MARIA GUBIANI": 8,
            "GIOVANNI MIOLO": 4,
            "ANNALIDA PUPULIN": 3,
            "MAURIZIO CANTON": 2,
            "LUANA MOLENT": 2,
            "ANNA SCARPA": 1,
            "ELISA PIGAT": 0
          }
        },
        "FORZA ITALIA": {
          "voti": 138,
          "preferenze": {
            "ANTONIO BASSO": 8,
            "CHANTAL SANI": 3,
            "ANDREA AZZANO CANTARUTTI": 2,
            "CHIARA AZZARETTI": 2,
            "DENIS POSOCCO": 1,
            "ENRICO VIERA": 0,
            "DANIELE ZAMUNER": 0,
            "EMILIA ZANIN": 0,
            "ELDA MORASSUT": 0,
            "ANDREINA ROSSI": 0,
            "KATY MATTIA": 0,
            "ARMANDO SANI": 0,
            "MAFALDA NADALIG": 0
          }
        },
        "POTERE AI CITTADINI": {
          "voti": 86,
          "preferenze": {
            "LUCA CELANTE": 26,
            "STEFANO CASTELLARIN": 13,
            "ISABEL NICOLE POZZAN": 8,
            "CARMINE RUOCCO": 8,
            "NICOLA AGNOLIN": 7,
            "MASSIMILIANO BENEDETTI": 6,
            "LORENZO GOBBO": 5,
            "TAMARA CEOLIN": 4,
            "GIACOMO JONATHAN VENTURA": 3,
            "MAGDA MORO": 2,
            "ANTONELLO DAL BEN": 0,
            "LARA ZULIANI": 0,
            "DAVIDE SANTAROSSA": 0,
            "SERENA BERTOLDO": 0,
            "NICOLA PORISIENSI": 0
          }
        }
      }
    }
  },
  "Fiumicello Villa Vicentina": {
    "sindaco": {
      "schede_bianche": 132,
      "schede_nulle": 209,
      "voti_contestati": 3,
      "voti_validi": {
        "LAURA SGUBIN": {
          "voti": 2324,
          "liste_collegate": [
            "INSIEME CON IL CUORE"
          ]
        },
        "CLAUDIO LUCAS": {
          "voti": 708,
          "liste_collegate": [
            "FUTURO COMUNE"
          ]
        }
      }
    },
    "affluenza": {
      "votanti": 3376,
      "elettori": 5478
    },
    "liste": {
      "voti_contestati": 3,
      "voti_validi": {
        "INSIEME CON IL CUORE": {
          "voti": 1949,
          "preferenze": {
            "EVA SFILIGOI": 236,
            "ENNIO SCRIDEL": 176,
            "ALESSANDRO DIJUST": 149,
            "FABIO LUONGO": 125,
            "GIANNI RIZZATTI": 119,
            "ROBERTA PANIGUTTI": 115,
            "MARTINA TENTOR": 103,
            "MICHELE FERNETTI": 96,
            "MARCO USTULIN": 79,
            "MONICA MURER": 65,
            "PAOLO DEAN": 63,
            "FRANCESCO PARO": 61,
            "MAURO RIGONAT": 59,
            "SARA SOSSI": 34,
            "LUISA MUSSO": 33,
            "GEMMA CALLIGARIS": 26
          }
        },
        "FUTURO COMUNE": {
          "voti": 589,
          "preferenze": {
            "MASSIMO ZUPPET": 36,
            "SERGIO GIOVANNINI": 30,
            "CRISTINA VIANELLO": 20,
            "SERGIO GIACUZZO": 17,
            "LUCA SCULAC": 15,
            "EMILIANO BIANCHIN": 15,
            "LIVIO DEBIASIO": 14,
            "IDA MANZI": 12,
            "TATIANA LITVYAK": 8,
            "ALFIO DIJUST": 5,
            "MILENA VALENTINI": 2,
            "MATTIA MARTINI": 2
          }
        }
      }
    }
  },
  "Fogliano Redipuglia": {
    "sindaco": {
      "schede_bianche": 43,
      "schede_nulle": 31,
      "voti_contestati": 0,
      "voti_validi": {
        "CRISTIANA PISANO": {
          "voti": 926,
          "liste_collegate": [
            "LEGA NORD",
            "UNITI PER IL PAESE"
          ]
        },
        "ALESSANDRA MESSINEO": {
          "voti": 684,
          "liste_collegate": [
            "RIPARTE",
            "LISTA CIVICA CAMBIARE FOGLIANO - POLAZZO - REDIPUGLIA"
          ]
        }
      }
    },
    "affluenza": {
      "votanti": 1684,
      "elettori": 2647
    },
    "liste": {
      "voti_contestati": 0,
      "voti_validi": {
        "LEGA NORD": {
          "voti": 338,
          "preferenze": {
            "ANTONIO CALLIGARIS": 54,
            "MANUEL BIANCHET CVETREZNIK": 29,
            "ROSANNA TOSORATTI": 11,
            "ANDREA BAIS": 7,
            "ALBERTO PUNTEL": 1,
            "ALEX VISINTIN": 0,
            "ALBA GRESSANI": 0,
            "GIUSEPPE PERACCA TOMADIN": 0,
            "ZLATA KOMERICKI": 0,
            "LIBERO CADENARO": 0,
            "LAURA TUREL": 0,
            "GIANCARLO SERAFINI": 0
          }
        },
        "UNITI PER IL PAESE": {
          "voti": 330,
          "preferenze": {
            "DANIELE DREOSSI": 39,
            "ELISA ODDO": 32,
            "SERENA DEL RIZZO": 32,
            "ENRICO BENELLA": 30,
            "ALESSIA BENVENUTO": 28,
            "VALENTINA CERNIC": 22,
            "LORENZO DA RE": 15,
            "LOREDANA VOCCA": 11,
            "ANTONIO SIBEN": 10,
            "MATTEO CALLIGARIS": 9,
            "ALBANO ZORZIN": 7,
            "ANDREA FURLAN": 5,
            "SERGIO FERRACIN": 4
          }
        },
        "RIPARTE": {
          "voti": 226,
          "preferenze": {
            "MICHELE BENFATTO": 45,
            "MASSIMO MUSET": 26,
            "ROBERTA BLASON": 25,
            "GIORGIO MORETTI": 24,
            "SIMONA PRESOT": 24,
            "PIA SPAGNOLO": 18,
            "MANUELA VALENT": 14,
            "GIANFRANCO CALLIGARIS": 8,
            "AURORA SABRINA SLANICKA": 4,
            "ENRICO VISINTIN": 4,
            "GABRIELLA PASSANTINO": 4,
            "TIZIANO PALLAVICINI": 4,
            "CLAUDIO BATTISTELLA": 3
          }
        },
        "LISTA CIVICA CAMBIARE FOGLIANO - POLAZZO - REDIPUGLIA": {
          "voti": 213,
          "preferenze": {
            "TIZIANA VUOTTO": 27,
            "GIULIA MIORIN": 20,
            "UGO MONTECALVO": 20,
            "MICHELE GALLIZIA": 12,
            "CELINA SQUARCINA": 12,
            "MONICA SCLAUNICH": 11,
            "IRIS BEARZOT": 10,
            "RAFFAELLA AGLIALORO": 9,
            "BARBARA CARNIO": 8,
            "ANDREA DAL CANTO": 7,
            "DANIELE ZAMARIAN": 4,
            "CARLO D'ANGELO": 3,
            "VALENTINA FRATINI": 2,
            "CLAUDIA MINIUSSI": 1
          }
        }
      }
    }
  },
  "Forgaria nel Friuli": {
    "sindaco": {
      "schede_bianche": 15,
      "schede_nulle": 18,
      "voti_contestati": 0,
      "voti_validi": {
        "MARCO CHIAPOLINO": {
          "voti": 788,
          "liste_collegate": [
            "PER IL BENE COMUNE"
          ]
        },
        "HENRICO LOCATELLI": {
          "voti": 257,
          "liste_collegate": [
            "UNIRE PER CRESCERE"
          ]
        }
      }
    },
    "affluenza": {
      "votanti": 1078,
      "elettori": 2335
    },
    "liste": {
      "voti_contestati": 0,
      "voti_validi": {
        "PER IL BENE COMUNE": {
          "voti": 775,
          "preferenze": {
            "LUIGINO INGRASSI": 189,
            "PIERLUIGI MOLINARO": 94,
            "VERONICA CIVINO": 89,
            "ANDREA GOI": 88,
            "BORIS COLETTI": 87,
            "FRANCESCA FRANCESCHINO": 86,
            "ALFONSINA PAPPACENA": 70,
            "ALESSANDRA BUONI": 54,
            "ANDREA VIDONI": 45,
            "ELEONORA DE NARDO": 36,
            "FEDERICO QUARINO": 34,
            "GIUSEPPE MARESCHI": 16
          }
        },
        "UNIRE PER CRESCERE": {
          "voti": 246,
          "preferenze": {
            "ENRICO FRUCCO": 64,
            "MARINA MARCUZZI": 48,
            "ENIO AGNOLA": 28,
            "NICOLA COLLINO": 25,
            "DELIA GARLATTI": 24,
            "FEDERICA BARAZZUTTI": 15,
            "MASSIMILIANO ZULIANI": 15,
            "LUCIANO BOREATTI": 14,
            "FABIO MOLINARO": 8,
            "EZIO STURAM": 5,
            "GIAN-LUCA BON": 3,
            "MARCO COCCIANTE": 1
          }
        }
      }
    }
  },
  "Gemona del Friuli": {
    "sindaco": {
      "schede_bianche": 92,
      "schede_nulle": 124,
      "voti_contestati": 0,
      "voti_validi": {
        "ROBERTO REVELANT": {
          "voti": 4234,
          "liste_collegate": [
            "GEMONA ATTIVA"
          ]
        },
        "ADALGISA LONDERO": {
          "voti": 1831,
          "liste_collegate": [
            "PROGETTO PER GEMONA",
            "GEMONA DOMANI"
          ]
        }
      }
    },
    "affluenza": {
      "votanti": 6281,
      "elettori": 11823
    },
    "liste": {
      "voti_contestati": 0,
      "voti_validi": {
        "GEMONA ATTIVA": {
          "voti": 3736,
          "preferenze": {
            "LORIS CARGNELUTTI": 577,
            "MARA GUBIANI": 358,
            "GIOVANNI VENTURINI": 355,
            "DAVIS GOI": 275,
            "FLAVIA VIRILLI": 262,
            "ANDREA CANCI": 215,
            "ANDREA PALESE": 209,
            "MAURO DI GIUSTO": 200,
            "NICOLA BOSELLO": 190,
            "MONICA FERAGOTTO": 187,
            "ZAGORKA BALOG": 176,
            "MICHELANGELO GIAU": 171,
            "RAFFAELLA ZILLI": 151,
            "LUIGINO PATAT": 135,
            "LUCA DE CECCO": 113,
            "ANDREA BROLLO": 70,
            "MANOLA SANGOI": 67,
            "ALESSANDRA CIVIDIN": 63,
            "VANNI BIANCHI": 56,
            "MONICA FORGIARINI": 54
          }
        },
        "PROGETTO per GEMONA": {
          "voti": 898,
          "preferenze": {
            "SANDRO VENTURINI": 134,
            "MARIOLINA PATAT": 116,
            "MARCO PISCHIUTTI": 90,
            "SONIA VENTURINI": 89,
            "GIOVANNI SCINTO": 82,
            "MARTINA ANDENNA": 69,
            "GIACOMINO DOROTEA": 58,
            "SANDRO CEREGHINI": 45,
            "IGOR MARCON": 32,
            "LAURA SINDICI": 29,
            "STEFANIA GIORGIUTTI": 27,
            "IRIS GAIER": 23,
            "CANDIDA BARAZZUTTI": 23,
            "MILA BROLLO": 15,
            "PAOLO MARINI": 14,
            "MICHELE LONDERO": 13,
            "MICHELE BUZZULINI": 11,
            "LAURA AMBROSIO": 11,
            "NICHOLAS DEL LINZ": 6,
            "MAGDA MAINARDIS": 5
          }
        },
        "GEMONA DOMANI": {
          "voti": 470,
          "preferenze": {
            "DAMIANO GURISATTI": 103,
            "TERESA VIDONI": 59,
            "ANNA PIAZZA": 56,
            "PAOLO CATTANI": 37,
            "FABIO PASCOLO": 29,
            "ALESSIO VENIER": 25,
            "SARA BELLINA": 24,
            "NICOLA COPETTI": 22,
            "ROBERTO COPETTI": 21,
            "SIRIA CARGNELUTTI": 20,
            "EMILIANO GUERRA": 19,
            "LUCIA ZAZZARO": 19,
            "MASSIMILIANO PIAZZI": 18,
            "ANNA MATTIONI": 14,
            "NICOLA PATAT": 14,
            "MARCO DE MEZZO": 13,
            "ANNA LARATRO": 11,
            "TOMMASO PIETRO GALLINA": 1
          }
        }
      }
    }
  },
  "Martignacco": {
    "sindaco": {
      "schede_bianche": 52,
      "schede_nulle": 74,
      "voti_contestati": 0,
      "voti_validi": {
        "GIANLUCA CASALI": {
          "voti": 1877,
          "liste_collegate": [
            "INSIEME PER LA COMUNITA'",
            "UNITI CON CASALI",
            "MARTIGNACCO IL NOSTRO FUTURO"
          ]
        },
        "CATIA PAGNUTTI": {
          "voti": 1037,
          "liste_collegate": [
            "LEGA NORD",
            "FRATELLI D'ITALIA/FORZA ITALIA",
            "LISTA CATIA PAGNUTTI SINDACO"
          ]
        },
        "MASSIMILIANO VENUTI": {
          "voti": 748,
          "liste_collegate": [
            "VENUTI SINDACO",
            "VENUTI PER UNIRE"
          ]
        }
      }
    },
    "affluenza": {
      "votanti": 3788,
      "elettori": 6152
    },
    "liste": {
      "voti_contestati": 0,
      "voti_validi": {
        "UNITI CON CASALI": {
          "voti": 612,
          "preferenze": {
            "ANTONIO MARTIN": 80,
            "STEFANO PAGNUTTI": 56,
            "GIULIO MERLUZZI": 52,
            "MARCO LIBRALATO": 46,
            "SERGIO DI BENEDETTO": 40,
            "MICHELE RECCHIA": 30,
            "STEFANO FLOREANI": 26,
            "ALESSANDRA BERTOLI": 25,
            "GIANLUCA SPAGNOLO": 24,
            "VERONICA GRION": 22,
            "IRENE COMISSO": 20,
            "ANNA LOMBARDO": 19,
            "OSCAR DE GIGLIO": 16,
            "STEFANO MARTELLOSSI": 14,
            "MARIA ELISABETTA LALA": 9,
            "SERGIO LINOSSI": 8
          }
        },
        "INSIEME PER LA COMUNITA'": {
          "voti": 524,
          "preferenze": {
            "ANTONELLA ORZAN": 113,
            "MICHELE STELLA": 74,
            "ESTER BELGASEM": 67,
            "GIANCARLO SARO": 67,
            "ANGELA NOVELLO": 50,
            "ROBERTO BUSOLINI": 50,
            "ALESSANDRO ZULIANI": 43,
            "IBRAHIMA SORY SOW": 32,
            "ANDREA DRIUSSI": 31,
            "LIVIO BORGHERO": 27,
            "LUCIANO MARTIN": 26,
            "LUCIA NADALUTTI": 24,
            "KETTY DAL LAGO": 21,
            "EDI PAGNUTTI": 18,
            "SANDRA TESOLIN": 18,
            "VALERIO COSEANO": 13
          }
        },
        "LEGA NORD": {
          "voti": 369,
          "preferenze": {
            "MARCO ROIATTI": 25,
            "UMBERTO RIVA": 8,
            "MAURIZIO LAVIA": 7,
            "CATERINA COMISSO": 6,
            "CLAUDIA BASALDELLA": 6,
            "STEFANO MINISINI": 5,
            "MARILENA DOMINI": 3,
            "FRANCESCO COLOSETTI": 2,
            "SIMONE SAURINO": 2,
            "SILVANA ZAMOLO": 2,
            "JESSICA ZIRALDO": 2,
            "FRANCO PECILE": 0
          }
        },
        "MARTIGNACCO IL NOSTRO FUTURO": {
          "voti": 332,
          "preferenze": {
            "ALEX PINZAN": 89,
            "ANTONINO POLIZZOTTO": 39,
            "MANUELA CUBERLI": 33,
            "DARIO AIELLO": 33,
            "BARBARA BEVILACQUA": 32,
            "FRANCESCO FURLANETTO": 23,
            "DANIELE MARTIN": 22,
            "PAOLO MARINI": 21,
            "ROSALBA LIVA": 17,
            "AGOSTINO MIRRA": 17,
            "LUCA PASCOLETTI": 14,
            "CLAUDIO BURELLO": 6,
            "LORIS LIANI": 6,
            "ANGELA NONESSO": 4,
            "AURORA MONTICOLO": 3,
            "DANIELE CAVALERI": 2
          }
        },
        "VENUTI SINDACO": {
          "voti": 255,
          "preferenze": {
            "MARCO LESA": 25,
            "DOROTA MAGDALENA STROMIDLO": 25,
            "STEFANO BUONGIORNO": 19,
            "NEFER GUSTAVO ROJAS LOPEZ": 19,
            "ALESSANDRA DONATI": 18,
            "GABRIELE MAIERO": 18,
            "LUCIA ANGELI": 9,
            "EMANUELE ALPINI": 8,
            "CARLA LIVA": 7,
            "MASSIMILIANO NATALI": 7,
            "ROBERTO LORENZON": 5,
            "GIUSEPPE IMPERIO": 2
          }
        },
        "LISTA CATIA PAGNUTTI SINDACO": {
          "voti": 233,
          "preferenze": {
            "GIANNI NOCENT": 42,
            "FABIO LEONARDO MESAGLIO": 39,
            "DANIELE TONINO": 31,
            "DENIS ZANELLO": 17,
            "CRISTINA MAIERO": 16,
            "CRISTINA BERTOLANO": 14,
            "VANESCA DEL BIANCO RIZZARDO": 12,
            "ANDREA ROSSI": 9,
            "DANIELE MISSIO": 8,
            "ALESSANDRO VIDOTTI": 7,
            "SILVIA GAGLIARDI": 6,
            "ADRIANO MION": 4
          }
        },
        "VENUTI PER UNIRE": {
          "voti": 227,
          "preferenze": {
            "LAURA TROVO'": 38,
            "LUCA ROSSI": 33,
            "FABIANO DI LAZZARO": 23,
            "GIANFRANCO INGENITO": 18,
            "DANILA DELLA ROSSA": 17,
            "STEFANIA BRATTA": 13,
            "CATELLO MUOLLO": 13,
            "ALBERTO PIANA": 13,
            "CLAUDIO SITTARO": 13,
            "MASSIMO VACANTE": 8,
            "MARKO DRAGAS": 7,
            "GRAZIELLA PASCOLETTI": 4
          }
        },
        "FRATELLI D'ITALIA/FORZA ITALIA": {
          "voti": 151,
          "preferenze": {
            "MARCO ZANOR": 41,
            "ANNA GRAZIA POLENTARUTTI": 13,
            "PAOLA TOGNI": 13,
            "ALESSANDRO PUPPO": 9,
            "VITTORE CONA": 8,
            "LIDIA CODUTTI": 6,
            "MAURIZIO CHITTARO": 6,
            "GIUSEPPE CASSUTTI": 5,
            "GIUSEPPE MATTIUSSI": 5,
            "FABIO CROATTO": 4,
            "STEFANIA MESAGLIO": 2,
            "CHIARA CAVAZZAN": 0
          }
        }
      }
    }
  },
  "Polcenigo": {
    "sindaco": {
      "schede_bianche": 34,
      "schede_nulle": 29,
      "voti_contestati": 0,
      "voti_validi": {
        "MARIO DELLA TOFFOLA": {
          "voti": 1365,
          "liste_collegate": [
            "VIVA POLCENIGO VIVA QUALCOSA DI NUOVO",
            "POLCENIGO PER TUTTI MOVIMENTO CIVICO",
            "INSIEME PER POLCENIGO"
          ]
        },
        "DIEGO GOTTARDO": {
          "voti": 393,
          "liste_collegate": [
            "PROGETTO PRIMAVERA DEMOCRATICA"
          ]
        }
      }
    },
    "affluenza": {
      "votanti": 1821,
      "elettori": 3708
    },
    "liste": {
      "voti_contestati": 0,
      "voti_validi": {
        "INSIEME PER POLCENIGO": {
          "voti": 464,
          "preferenze": {
            "ANTONIO DEL FIOL": 196,
            "OLIVA QUAIA": 84,
            "KAREN DORIGO": 51,
            "DONATELLA ZANOLIN": 37,
            "MONICA BRAVIN": 34,
            "GIORGIO ZUZZI": 28,
            "VALENTINO STEFFAN": 28,
            "GIUSEPPE GAMBRON": 22,
            "MICHELA PUSIOL": 17,
            "ADRIANO FANTIN": 10,
            "ALESSANDRA QUAIA": 10,
            "GIANLUCA QUAIA": 8,
            "FRANCESCO FRANCO": 7,
            "MARCO GIARETTA": 3,
            "ALDINO MICCO": 2,
            "ALESSANDRO FRANCO": 1
          }
        },
        "PROGETTO PRIMAVERA DEMOCRATICA": {
          "voti": 355,
          "preferenze": {
            "EZIO BRAVIN": 56,
            "DANIELA ROSSITTO": 43,
            "MARTINA DELLA VALENTINA": 43,
            "GIULIA DEL PUPPO": 42,
            "FABRIZIO VENIER": 24,
            "EZIO BURIGANA": 23,
            "CHRISTIAN BUTTIGNOL": 19,
            "LUIGINO DEL PUPPO": 19,
            "GIBLANO ROBERTO DONAZZON": 18,
            "GIOVANNI MEZZAROBBA": 16,
            "RUGGERO TAMMEO": 9,
            "SONIA BRAVIN": 8,
            "RENATO BELGRADO": 8,
            "MAURO QUAIA": 7,
            "GIANCARLO BRAVIN": 5,
            "FEDERICO COMEL": 5
          }
        },
        "VIVA POLCENIGO VIVA Qualcosa di nuovo": {
          "voti": 324,
          "preferenze": {
            "FABIO PEGORARO": 69,
            "MARIAROSA BOSSER": 49,
            "SERGIO RIGO": 33,
            "GIULIA ORTOLAN": 22,
            "GIACOMO DELLA TOFFOLA": 18,
            "ANGELO POLESE": 17,
            "CLAUDIO PERUT": 17,
            "STEFANO GAMBRON": 17,
            "LORELLA PERISSINOTTO": 14,
            "ELIA DE ROVERE": 12,
            "CARLO STEFANO BARBIERI": 8,
            "CLETO TONON": 5,
            "LUCIANO DEL PUPPO": 3,
            "DIEGO DEL PUPPO": 2,
            "SILVANA MOZZON": 2,
            "ANTONIO DELLA TOFFOLA": 0
          }
        },
        "POLCENIGO PER TUTTI Movimento civico": {
          "voti": 319,
          "preferenze": {
            "GENNARO PARISI": 76,
            "ANNA ZANOLIN": 59,
            "FABIO VIEL": 20,
            "MICHELA ZANOLIN": 17,
            "RICCARDO DORIGO": 16,
            "MARINA DELLA GASPERA": 16,
            "EUGENIO TOFFOLI": 12,
            "FABIO DELLA VALENTINA": 12,
            "MARCO SANTIN": 11,
            "ELENA FANTIN": 11,
            "ALESSANDRO BRAVIN": 6,
            "DIEGO GOTTARDO": 4,
            "EDOARDO BASTIANELLO": 4,
            "CHRISTIAN FEDRIGO": 2
          }
        }
      }
    }
  },
  "Sacile": {
    "sindaco": {
      "schede_bianche": 82,
      "schede_nulle": 144,
      "voti_contestati": 2,
      "voti_validi": {
        "CARLO SPAGNOL": {
          "voti": 4128,
          "liste_collegate": [
            "VIVA SACILE SPAGNOL SINDACO",
            "FORZA ITALIA"
          ]
        },
        "ALBERTO GOTTARDO": {
          "voti": 3395,
          "liste_collegate": [
            "IL POPOLO DELLA FAMIGLIA",
            "'AUTONOMIA RESPONSABILE CON TONDO PER ALBERTO GOTTARDO'",
            "LEGA NORD",
            "ATTIVASACILE",
            "FRATELLI D'ITALIA - ALLEANZA NAZIONALE",
            "CIVICA PER SACILE - ALBERTO GOTTARDO SINDACO"
          ]
        },
        "RUGGERO SIMIONATO": {
          "voti": 1317,
          "liste_collegate": [
            "PARTITO DEMOCRATICO",
            "SIAMO SACILE - SIMIONATO SINDACO"
          ]
        },
        "ANTONIO PETRALIA": {
          "voti": 581,
          "liste_collegate": [
            "MOVIMENTO 5 STELLE"
          ]
        }
      }
    },
    "affluenza": {
      "votanti": 9649,
      "elettori": 17005
    },
    "liste": {
      "voti_contestati": 2,
      "voti_validi": {
        "LEGA NORD": {
          "voti": 1813,
          "preferenze": {
            "VALENTINA ZOI": 201,
            "VANNIA GAVA": 175,
            "MARCO BOTTECCHIA": 166,
            "PLACIDO FUNDARO'": 136,
            "MAURO CELOTTO": 79,
            "MICHELE ZAGARIA": 73,
            "ADRIANO PERIN": 61,
            "SIMONE BORTOLAN": 49,
            "VITTORINO ANTONIOLLI": 33,
            "LUCIA COZZI": 31,
            "MARA GAVA": 30,
            "ENRICO POLESELLO": 26,
            "MARTA DAL CIN": 21,
            "NICOL LISETTO": 18,
            "ANTONELLA ZANETTE": 18,
            "SERENO DE MARCO": 16,
            "FRANCESCO SORANZO": 14,
            "LUCIO MION": 12,
            "MARZIA CAPUTO": 7,
            "GIANBATTISTA ROSOLEN": 6,
            "BRUNO BURIOLA": 5,
            "ENRICA MENEGUZZI": 4,
            "ANNA MARIA DE NARDI": 3,
            "ENNIO MASO": 0
          }
        },
        "VIVA SACILE SPAGNOL SINDACO": {
          "voti": 1468,
          "preferenze": {
            "CLAUDIO SALVADOR": 186,
            "RUGGERO SPAGNOL": 132,
            "ALESSANDRO GASPAROTTO": 87,
            "LAURA GIUST": 86,
            "SANDRO LUCCHESE": 66,
            "STEFANO ULIANA": 59,
            "ROBERTA LOT": 56,
            "MARIA GARGAN": 53,
            "GIAMBATTISTA NAIBO": 47,
            "GIORGIO ENDRIGO": 46,
            "ALESSANDRA ROMANIN": 41,
            "ANTONIO POLETTI": 36,
            "STEFANIA BURIGANA": 30,
            "CLEMENTINA POLESE": 29,
            "GIANCARLO POLLES": 22,
            "ANDREA CANTON": 20,
            "BRUNO GAIOT": 16,
            "GABRIELE VISENTINI": 13,
            "MICHELE MACCORIN": 12,
            "ANNA BARAZZA": 11,
            "GIANCARLO ANTONIO CUSCUNA'": 11,
            "MARTINA ROS": 6,
            "LUANA LEONE": 5,
            "MASSIMILIANO LUCCON": 1
          }
        },
        "FORZA ITALIA": {
          "voti": 1065,
          "preferenze": {
            "MAURIZIO COAN": 88,
            "ROBERTO CERAOLO": 85,
            "ANTONELLA BALDO": 77,
            "ALESSIO PICCOLI": 58,
            "CHRISTIAN LUCCHESE": 39,
            "MAURIZIO DE BORTOLI": 34,
            "GABRIELLA DA ROS": 32,
            "GIUSEPPE LOVISOTTO": 24,
            "LUIGI FRARE": 23,
            "ELIZABETH GALIAZZO": 23,
            "JOYCE BORTOLUSSI": 21,
            "MAURIZIO REBELLO": 21,
            "MICHELE RADICI": 19,
            "CRISTINA POLANZANI": 17,
            "MARIA TERESA LOT": 15,
            "DOMENICO MORAS": 14,
            "CESARE SALVADOR": 14,
            "ELENA MATTESCO": 11,
            "GIOVANNI PAOLO BURIGANA": 6,
            "BRUNA DALLA SANTA": 5,
            "SABRINA GIOVANNELLI": 5,
            "VALENTINA SANTINATO": 4,
            "PAOLA VENDRAMINI": 4,
            "ANGELO BORNANCIN": 1
          }
        },
        "PARTITO DEMOCRATICO": {
          "voti": 802,
          "preferenze": {
            "VITA MARIA LEONARDI": 59,
            "GIOVANNI BUTTIGNOL": 55,
            "PATRIZIA DEL COL": 38,
            "IVO LOT": 33,
            "VALLI DE RE": 26,
            "GILBERTO TOMASELLA": 26,
            "LINO CARLOT": 25,
            "ANNAMARIA SPAGNOL": 19,
            "MASSIMO POLETTO": 17,
            "CLAUDIO MODOLO": 13,
            "MAURIZIO MASUT": 12,
            "GIOVANNI NADAL": 10,
            "EUGENIO BET": 9,
            "EVIO BONAS": 9,
            "FRANCO BASSO": 6,
            "MICHELA BORTOLUZZI": 3,
            "ETTORINA BENEDET": 2,
            "ROBERTO ASTOLFI": 1
          }
        },
        "CIVICA PER SACILE - ALBERTO GOTTARDO SINDACO": {
          "voti": 663,
          "preferenze": {
            "GERLANDO SORCE": 198,
            "MAURIZIA SALTON": 79,
            "ISIDORO GOTTARDO": 60,
            "EDERISA HAXHOLLI": 35,
            "VALTER RIGO": 29,
            "MOIRA BIANCO": 27,
            "EZIO TOMASELLA": 21,
            "MARINA PIZZOL": 20,
            "ANNABEL CAVALIDA": 20,
            "ALESSANDRA GARGAN": 18,
            "MARA PERUCH": 18,
            "MAURIZIO BORASO": 13,
            "MARCO PERNIOLA": 13,
            "FEDERICO IONCOLI": 11,
            "ALFREDO GROSSI": 10,
            "PATRIZIA BUSTELLI": 9,
            "NEVIO ZORZETTO": 9,
            "GIUSEPPE GROTTO": 8,
            "ANTONELLA MORASSET": 8,
            "TIZIANA PICCOLO": 6,
            "DENIS MAGRO": 4
          }
        },
        "MOVIMENTO 5 STELLE": {
          "voti": 507,
          "preferenze": {
            "BENIAMINO FADALTI": 20,
            "ENZO ASTOLFI": 16,
            "GIGLIOLA BASSAN": 15,
            "TIZIANO ZILLI": 14,
            "SALVATORE TURCO": 8,
            "SALVATORE CANNATA": 7,
            "ROSA CARNELOS": 6,
            "MELISSA ALFIERI": 6,
            "RITA TOE'": 5,
            "NICCOLO' ANGELO CARNELOS": 2,
            "STEFANIA TURCO": 2,
            "LUCIA CAPUTO": 2,
            "STEFANO SEBASTIANO": 1,
            "GELSOMINA CAPUTO": 0,
            "CLARIDA ALFIERI": 0,
            "FABIO MANBIR SINGH": 0,
            "ELENA CASATI": 0
          }
        },
        "attivasacile": {
          "voti": 371,
          "preferenze": {
            "ELISA PALU'": 63,
            "GIACOMO RE": 62,
            "FABIO DAL CIN": 38,
            "FRANCESCO CASAGRANDE": 37,
            "ALBERTO MATTESCO": 28,
            "LIVIA SARTORI DI BORGORICCO": 24,
            "ADRIANO VOLLARO": 22,
            "DAVIDE FELICI": 14,
            "DAVIDE SANDRIN": 11,
            "GUIDO ZAGHET": 11,
            "VALENTINA MORAS": 9,
            "SILVIA COSTELLA": 8,
            "WALTER BECCIU": 7,
            "GREGORIO GIUST": 6,
            "GIANLUCA ORTOLAN": 6,
            "ANDREA PEZZATO": 5,
            "GIANPAOLO PERUCH": 4,
            "SUE-ELLEN BRIEDA": 3,
            "SILVIA ZAMAI": 3,
            "ROMINA MARIOTTO": 3,
            "ALESSIA SAVERI": 1
          }
        },
        "SIAMO SACILE - SIMIONATO SINDACO": {
          "voti": 352,
          "preferenze": {
            "GRAZIANA MODOLO": 67,
            "FRANCO IGNE": 56,
            "ANNA PIEMONTESE": 40,
            "MARIO MODOLO": 36,
            "DAVIDE SANTIN": 16,
            "MIRKO BASSO": 14,
            "PIERO PILLONI": 14,
            "GIULIA CARCO'": 13,
            "SANDRO MARCOLONGO": 12,
            "MADDALENA MOSCONI": 10,
            "STEFANO PIETRO TRUCCOLO": 8,
            "NICOLE FIORINI": 6,
            "DANIELE GAVA": 4,
            "FABIO TOFFOLI": 3,
            "VERA ORTO": 2,
            "CAROLINA MARIUZZO": 1
          }
        },
        "FRATELLI D'ITALIA - ALLEANZA NAZIONALE": {
          "voti": 191,
          "preferenze": {
            "ARIANA SABATO": 36,
            "FRANCESCO MORABITO": 35,
            "KEVIN ORTOLAN": 18,
            "LOREDANA COLOSIMO": 13,
            "SILVIA GUARNIERI": 9,
            "MARINA BIGARAN": 8,
            "GIOVANNI PASCARELLA": 6,
            "FABIOLA DE NARDI": 5,
            "CRISTINA MARIA PIANETTA": 3,
            "UGO CALIMAN": 2,
            "MICHELE MARSON": 2,
            "ANTONIO SOMMARIVA": 2,
            "ANDREA MICHIELIN": 1,
            "GIANCARLO CHIMIENTI": 0,
            "LOREDANA CELOTTO": 0,
            "ALESSANDRO MICHIELIN": 0,
            "MAIRA POLESE": 0
          }
        },
        "'AUTONOMIA RESPONSABILE CON TONDO PER ALBERTO GOTTARDO'": {
          "voti": 87,
          "preferenze": {
            "STEFANO FALCONE": 5,
            "ANDREA SANTAROSSA": 4,
            "DANIELE POLES": 3,
            "LAURA BASEGGIO": 1,
            "MARIA ANGELA BOTTECCHIA": 1,
            "ANTONIO SARTORI DI BORGORICCO": 1,
            "PAOLA COVRE": 0,
            "ELEONORA GIRARDI": 0,
            "RICCARDO BISCONTIN": 0,
            "RAFFAELLA CARNELOS": 0,
            "STEFANO POSSAMAI": 0,
            "MADDALENA DE RE": 0,
            "LUCA PRESOTTO": 0,
            "ENNIO BRUSADIN": 0,
            "CRISTIANO RAVAGNAN": 0,
            "FRANCESCO ZAIA": 0,
            "PILAR LUISA PERAZZO": 0
          }
        },
        "Il Popolo della Famiglia": {
          "voti": 37,
          "preferenze": {
            "FABIO PIVA": 16,
            "CARMELA GRAZIOSO": 5,
            "GLORIA CALLARELLI": 4,
            "VINCENZO IANNACCONE": 4,
            "BENNIE MAE FLAGG": 4,
            "ALESSANDRA RUBINETTO": 2,
            "GIUSEPPE LOSCHIAVO": 1,
            "GIOVANNI TOFFOLI": 0,
            "RICCARDO GIACOMEL": 0,
            "CLAUDIO BELLOMO": 0,
            "DINA GARDIMAN": 0,
            "MAICOL BELLOTTO": 0,
            "IVAN MANZATO": 0,
            "VLADIMIRO CAMPELLO": 0,
            "ANNA TOFFOLI": 0,
            "DANIELE DALLA MARTA": 0
          }
        }
      }
    }
  },
  "San Daniele del Friuli": {
    "sindaco": {
      "schede_bianche": 63,
      "schede_nulle": 107,
      "voti_contestati": 0,
      "voti_validi": {
        "PIETRO VALENT": {
          "voti": 1591,
          "liste_collegate": [
            "LEGA NORD",
            "SAN DANIELE SVOLTA",
            "FRATELLI D'ITALIA - ALLEANZA NAZIONALE"
          ]
        },
        "PAOLO MENIS": {
          "voti": 1555,
          "liste_collegate": [
            "CIVICA 18 S DANIELE",
            "SAN DANIELE BENE COMUNE"
          ]
        },
        "LEONARDO DELLA ROSA": {
          "voti": 677,
          "liste_collegate": [
            "INNOVARE SAN DANIELE"
          ]
        },
        "FRANCESCO PAOLO DECLEVA": {
          "voti": 181,
          "liste_collegate": [
            "LISTA PER TUTTI"
          ]
        }
      }
    },
    "affluenza": {
      "votanti": 4174,
      "elettori": 7789
    },
    "liste": {
      "voti_contestati": 0,
      "voti_validi": {
        "LEGA NORD": {
          "voti": 799,
          "preferenze": {
            "MAURO VISENTIN": 131,
            "MASSIMO PISCHIUTTA": 52,
            "SILVANO PILOSIO": 28,
            "SILVANA ZAMOLO": 24,
            "GIOVANNI CANDUSSO": 20,
            "FERNANDA PUGNALE": 18,
            "YVAN VIGNUDA": 15,
            "ADRIANO TRUS": 11,
            "ARIANNA ANDREUTTI": 9,
            "TIZIANA MARCUZZI": 7,
            "EMANUELE TREVISAN": 7,
            "ROBERTA GERUSSI": 4,
            "FABIO PIUZZI": 4,
            "MARCO PICCOLI": 2,
            "PATRICK CESARANO": 0
          }
        },
        "SAN DANIELE BENE COMUNE": {
          "voti": 531,
          "preferenze": {
            "ROMANO OVAN": 99,
            "FABIO SPITALERI": 78,
            "ILARIA GALANTE": 71,
            "ALBERTO MARIA MICHELUTTI": 70,
            "ANNA BAGATTO": 64,
            "MATTEO CONDORELLI": 58,
            "MARIROSA CECCONI": 37,
            "ALFONSO CANDUSSO": 35,
            "CARLA MALISAN": 28,
            "ALESSANDRO BUTTAZZONI": 20,
            "LAURA NAZARETH": 11,
            "ADRIANO PERESANO": 9,
            "GIORGIO BONDAVALLI": 7,
            "ROBERT-EDUARD KOROZSI": 4,
            "VANNI GOBBO": 2
          }
        },
        "iNNOVARE SAN DANIELE": {
          "voti": 455,
          "preferenze": {
            "CONSUELO ZANINI": 87,
            "RUDI BAGATTO": 80,
            "IVAN PISCHIUTTA": 59,
            "LUCIO MOS": 47,
            "ANDREA VALOPPI": 46,
            "ANTONIO PISCHIUTTA": 38,
            "MAURO BATTISTELLA": 30,
            "ROBERTO CASTELLANO": 30,
            "ANDREA BIN": 26,
            "RENZA POLANO": 24,
            "MARIA ELENA BROSOLO": 22,
            "ULISSE VARISCO": 13,
            "CELESTINA TOMAT": 9,
            "STEFANIA PRESELLO": 8,
            "MARISA ROSSI": 4,
            "GUERRINO FABRIZI": 2
          }
        },
        "CIVICA 18 S DANIELE": {
          "voti": 413,
          "preferenze": {
            "CARLO TOPPAZZINI": 110,
            "MICHELE PISCHIUTTA": 71,
            "NINO DI LUCH": 50,
            "SERGIO CONTARDO": 27,
            "ALESSANDRA CANDUSSO": 24,
            "SANDRA RELATIVO": 23,
            "ALESSANDRA COZZUTTI": 21,
            "CRISTIANA DITTA": 19,
            "NICOLA PIUZZI": 19,
            "LUIGINO PISCHIUTTA": 17,
            "RENATO DANIELIS": 16,
            "VALENTINO DE GIORGI": 12,
            "ALESSANDRO DI PAULI": 11,
            "ALESSANDRO ROMANZIN": 11,
            "PAOLA CANTARUTTI": 9
          }
        },
        "SAN DANIELE SVOLTA": {
          "voti": 278,
          "preferenze": {
            "DANIELA COMINOTTO": 54,
            "MATTEO CARNELOS": 34,
            "AMBRA CANCIANI": 26,
            "LIVIO CELOTTI": 25,
            "LUCA MARCUZZI": 22,
            "SIMONE SCRUZZI": 21,
            "ANDREINA BORTOLUZZI": 20,
            "MAURIZIO DI FANT": 17,
            "CLAUDIA ERSILIA COLOMBINO": 15,
            "PIERINO VIOLINO": 13,
            "CLAUDIO CONZATTI": 9,
            "ERICA FABRIS": 9,
            "MASSIMILIANO NICOTRA": 9,
            "VILMA SPELAT": 8,
            "ANGELO CASTELLANI": 1,
            "CLAUDIO POLANO": 1
          }
        },
        "LISTA PER TUTTI": {
          "voti": 136,
          "preferenze": {
            "DAVIDE BATTELLINO": 10,
            "KEVIN DALL'ARCHE": 7,
            "GIANPIETRO MILAN": 7,
            "ELISA COSTANTINI": 5,
            "EZIO POLANO": 5,
            "MATTIA DEL DO'": 4,
            "MARIA ANDREINA DI FANT": 4,
            "ELISA NARDUZZI": 4,
            "WALTER SPIZZAMIGLIO SINATRA": 4,
            "FIORDALISO BULFON": 3,
            "ANTONINO POLLINA": 2,
            "FLAVIA MARIABELLI": 1,
            "MARIO TONIZZO": 1
          }
        },
        "FRATELLI D'ITALIA - ALLEANZA NAZIONALE": {
          "voti": 79,
          "preferenze": {
            "DOMENICO DI SARNO": 34,
            "MASSIMO ANELLO": 11,
            "DANTE DECINI": 7,
            "MARCO AMBROSINO": 5,
            "ROBERTO TOSOLINI": 4,
            "PAMELA FORNASIERO": 2,
            "ALESSANDRA RIVA": 2,
            "MARCO MAIERON": 1,
            "SIMONA PICCOLI": 0,
            "LORENZO MARCHESE": 0,
            "DANIELA FORZAN": 0,
            "ADRIANA VIDONI": 0
          }
        }
      }
    }
  },
  "San Giorgio della Richinvelda": {
    "sindaco": {
      "schede_bianche": 158,
      "schede_nulle": 90,
      "voti_contestati": 0,
      "voti_validi": {
        "MICHELE LEON": {
          "voti": 1887,
          "liste_collegate": [
            "RADICI E  FUTURO"
          ]
        }
      }
    },
    "affluenza": {
      "votanti": 2135,
      "elettori": 4632
    },
    "liste": {
      "voti_contestati": 0,
      "voti_validi": {
        "RADICI E FUTURO": {
          "voti": 1725,
          "preferenze": {
            "GIULIA VOLPATTI": 137,
            "MANUELE TUBELLO": 94,
            "VALENTINA BRATTI": 85,
            "FRANCESCO D'ANDREA": 83,
            "GUIDO FILIPUZZI": 63,
            "LUCA LEON": 58,
            "SUSANNA FORNASIER": 38,
            "DANIELE SCHIABEL": 37,
            "ANNA ROSA": 34,
            "ANDREA LUCHINI": 28,
            "CLAUDIO DE CANDIDO": 28,
            "LUIGI MARCHI": 25,
            "IVAN ORLANDO": 23,
            "MICHELE BORROMEO": 20,
            "NICOLAS MORETTI": 18,
            "CLAUDIO SCANDIUZZI": 13
          }
        }
      }
    }
  },
  "San Giorgio di Nogaro": {
    "sindaco": {
      "schede_bianche": 67,
      "schede_nulle": 83,
      "voti_contestati": 0,
      "voti_validi": {
        "ROBERTO MATTIUSSI": {
          "voti": 2212,
          "liste_collegate": [
            "CAMBIAMENTO RESPONSABILE MATTIUSSI SINDACO",
            "ROBERTO MATTIUSSI SINDACO"
          ]
        },
        "DANIELE SALVADOR": {
          "voti": 1024,
          "liste_collegate": [
            "UNITI PER SAN GIORGIO",
            "SAN GIORGIO AL CENTRO"
          ]
        },
        "DAVIDE BONETTO": {
          "voti": 688,
          "liste_collegate": [
            "IMPEGNO CIVICO",
            "CITTA' FUTURA - SAN GIORGIO DI NOGARO"
          ]
        }
      }
    },
    "affluenza": {
      "votanti": 4074,
      "elettori": 6764
    },
    "liste": {
      "voti_contestati": 0,
      "voti_validi": {
        "ROBERTO MATTIUSSI SINDACO": {
          "voti": 1253,
          "preferenze": {
            "LEONARDO BUTA'": 222,
            "RACHELE DI LUCA": 188,
            "MASSIMO VOCCHINI": 93,
            "SIMONE BIONDIN": 75,
            "PAOLO TONIOLO": 68,
            "LUIGI BARBANA": 54,
            "ANTONIO BUONAVOLONTA'": 50,
            "ELISA DENITTIS": 35,
            "MARTINA ZAMARO": 33,
            "FABIO FIORIN": 32,
            "GIOVANNI RANDI": 28,
            "ANNA BATTEL": 27,
            "MARTINA FASANO": 26,
            "ANDREA CASOTTO": 23,
            "NICOLE VEIZAJ": 14,
            "FABRIZIO TONIUTTI": 10
          }
        },
        "CAMBIAMENTO RESPONSABILE MATTIUSSI SINDACO": {
          "voti": 580,
          "preferenze": {
            "ENZO BERTOLDI": 191,
            "GUIDO PIGANI": 75,
            "ROBERTA SARTORI": 71,
            "LAURA CITOSSI": 64,
            "LORENZO TAVIAN": 64,
            "NICOLA DEL FRATE": 53,
            "FRANCESCA MONTEFIORI": 49,
            "RENATA ZENGARO": 37,
            "TOMMY NOBILE": 31,
            "MAURIZIO PESSINA": 29,
            "ROSSANA LOPES": 25,
            "MARIDA DEL PICCOLO": 21,
            "STEFANIA MONGERA": 14,
            "FRANCESCO MALISAN": 11,
            "CATIA BROLLO": 6,
            "ROBERTO MARAN": 6
          }
        },
        "UNITI PER SAN GIORGIO": {
          "voti": 441,
          "preferenze": {
            "PIETRO DEL FRATE": 102,
            "DANIELA CORSO": 83,
            "FLAVIA TOMBA": 60,
            "MICHELA PIZZIN": 29,
            "COSETTA PIU": 24,
            "PAOLO FAVALESSA": 19,
            "LEONARDO MAURO": 19,
            "DARIO FABRIS": 15,
            "LISA TAVERNA": 11,
            "DIEGO POLENTARUTTI": 11,
            "LUCIO GARBIN": 8,
            "VALERIO FIORETTI": 2
          }
        },
        "CITTA' FUTURA - SAN GIORGIO DI NOGARO": {
          "voti": 210,
          "preferenze": {
            "CRISTINA PITTIS": 59,
            "ERIC BUIATTI": 32,
            "GABRIELE PITACCO": 28,
            "LUCA ALFONSO D'AGOSTINO": 27,
            "MARTINA STABILE": 22,
            "ANTERO COLLAVIN": 11,
            "PATRIZIA DE MARCHI": 9,
            "GIULIA DEL FRATE": 7,
            "GIANLUCA LA BORIA": 5,
            "FRANCO POLENTARUTTI": 3,
            "DEMITRI RINALDI": 2,
            "GIULIA SANDRON": 1
          }
        },
        "SAN GIORGIO AL CENTRO": {
          "voti": 198,
          "preferenze": {
            "MAURO PERFETTI": 57,
            "ANTONELLA XODO": 44,
            "ALESSANDRO TOTIS": 25,
            "INES MARIANO": 15,
            "DALIA DENTESANO": 10,
            "ALEXANDRA VYSKOCILOVA": 10,
            "DIMITRI ZANE": 9,
            "ENRICHETTA ZANFAGNIN": 9,
            "PAOLO SEGATTO": 8,
            "LUCA STEFANOPOLI": 5,
            "MARCO CAZZOLA": 4,
            "GIUSEPPINA ZANETTI": 3,
            "MARCO DEL PIN": 1,
            "EUGENIO MILANESE": 1
          }
        },
        "IMPEGNO CIVICO": {
          "voti": 182,
          "preferenze": {
            "CATERINA TAVERNA": 32,
            "ANNALISA FASAN": 21,
            "DIEGO BRACH": 16,
            "ELENA DI GIUSTO": 15,
            "DANIELE TOMBA": 13,
            "ASTRID CITOSSI": 11,
            "JODI STELLITA": 10,
            "LUCIAN VLAD BOB": 10,
            "ALEX TARGATO": 8,
            "ALESSANDRO TEMPO": 3,
            "MASSIMO ULLIANA": 3
          }
        }
      }
    }
  },
  "Sequals": {
    "sindaco": {
      "schede_bianche": 26,
      "schede_nulle": 42,
      "voti_contestati": 0,
      "voti_validi": {
        "ENRICO ODORICO": {
          "voti": 577,
          "liste_collegate": [
            "DEMOCRAZIA CIVICA"
          ]
        },
        "MATTEO MORETTO": {
          "voti": 508,
          "liste_collegate": [
            "INTANT BUNDI'"
          ]
        },
        "NORIS PASCUT": {
          "voti": 64,
          "liste_collegate": [
            "CASAPOUND ITALIA"
          ]
        }
      }
    },
    "affluenza": {
      "votanti": 1217,
      "elettori": 2487
    },
    "liste": {
      "voti_contestati": 0,
      "voti_validi": {
        "DEMOCRAZIA CIVICA": {
          "voti": 516,
          "preferenze": {
            "FRANCESCO BOMBASARO": 60,
            "SERENA GUARINO": 55,
            "GIANNI LUNARI": 52,
            "GUIDO VUERICH": 48,
            "FRANCESCO SERRA": 30,
            "ANTONELLA LA PLACA": 22,
            "SANDRO MONTICO": 22,
            "GIULIO CROVATO": 18,
            "BRUNO PERFETTI": 16,
            "FABIO QUERINI": 11,
            "LUCIO VINCENZO TONELLI": 9,
            "CHIARA MANFROI": 8
          }
        },
        "INTANT BUNDI'": {
          "voti": 389,
          "preferenze": {
            "FABIANA VISENTIN": 71,
            "DARIO ZAMPARO": 61,
            "MARCO DE LILLO": 49,
            "FABRIZIO CARLOTTO": 45,
            "MONICA BERTIN": 41,
            "BARBARA RET": 35,
            "JACOPO RUSSO": 35,
            "NATALE AMOROSO": 30,
            "GIULIA CROZZOLI": 28,
            "ARTURO ANASTASIA": 26,
            "LUCIANO ZIZOLA": 20
          }
        },
        "CASAPOUND ITALIA": {
          "voti": 49,
          "preferenze": {
            "PAOLO MUCCIOLO": 4,
            "MICHELE CESCA": 1,
            "SARAH ZILLI": 1,
            "EMANUELE JOSE' GIBILISCO": 1,
            "SIMONE BRUNO ROSA BERNARDINS": 0,
            "LISA GUERRA": 0,
            "PIETRO ANDREON": 0,
            "NICOLA DI BORTOLO": 0,
            "ELISA DANIELI": 0,
            "SALVATORE SOSORO": 0
          }
        }
      }
    }
  },
  "Spilimbergo": {
    "sindaco": {
      "schede_bianche": 55,
      "schede_nulle": 69,
      "voti_contestati": 0,
      "voti_validi": {
        "ENRICO SARCINELLI": {
          "voti": 2344,
          "liste_collegate": [
            "POPOLO DI CENTRODESTRA-FORZA SPILIMBERGO",
            "CON & PER SPILIMBERGO - SARCINELLI SINDACO",
            "VIVERE SPILIMBERGO",
            "FRATELLI D'ITALIA - ALLEANZA NAZIONALE"
          ]
        },
        "MARCO DREOSTO": {
          "voti": 1867,
          "liste_collegate": [
            "PATTO PER SPILIMBERGO",
            "LEGA NORD",
            "SPILIMBERGO CIVICA"
          ]
        },
        "LEONARDO SORESI": {
          "voti": 1603,
          "liste_collegate": [
            "SPILIMBERGO IN CAMMINO",
            "SPILIMBERGO DEMOCRATICA"
          ]
        },
        "JACOPO SEDRAN": {
          "voti": 338,
          "liste_collegate": [
            "MOVIMENTO 5 STELLE"
          ]
        }
      }
    },
    "affluenza": {
      "votanti": 6276,
      "elettori": 10898
    },
    "liste": {
      "voti_contestati": 0,
      "voti_validi": {
        "LEGA NORD": {
          "voti": 1138,
          "preferenze": {
            "DAVIDE LAURETANO": 79,
            "STEFANO ZANNIER": 61,
            "DANIELA PIGNAT": 51,
            "MARINA PELLIS": 42,
            "LUCA VENARUZZO": 38,
            "PIETRO PAOLO DONDA": 37,
            "SIMONE DREOSTO": 37,
            "AURELIANO SEDRAN": 32,
            "ALBERTO COMMESSATTI": 14,
            "CLAUDIO COLONNELLO": 12,
            "GIUSEPPE BOZZER": 11,
            "GINO ZULIANI": 11,
            "ALEX CORAZZA": 10,
            "FRANCESCO ROS": 4,
            "LUCIA COZZI": 3,
            "DANIA CESARATTO": 3,
            "MARIBEL RIVAS": 3,
            "OSVALDO BIER": 2,
            "ALESSANDRA DI VALENTIN": 1
          }
        },
        "POPOLO DI CENTRODESTRA-FORZA SPILIMBERGO": {
          "voti": 737,
          "preferenze": {
            "STEFANO ZAVAGNO": 128,
            "ESTER FILIPUZZI": 101,
            "ANNA BIDOLI": 65,
            "ANTONIO FARINA": 65,
            "CARLO ROMAN": 48,
            "DANILO GUCCIONE": 47,
            "ANDREA PETTOVEL": 34,
            "GINO TREVISAN": 29,
            "PATRIZIA POLITTI": 28,
            "SIMONA PORCINO": 28,
            "CLAUDIO ISCERI": 24,
            "STEFANIA DEL TOSO": 17,
            "BUKURIJE BELA METOLLI": 16,
            "ELISA AVOLEDO": 13,
            "ANDREA PATISSO": 13,
            "ANDREA COLLESAN": 12,
            "FRANCESCA COZZI": 12,
            "ROSELLINA CAROLLO": 8,
            "RENZO TOMMASINI": 5,
            "JORIS DELL'ASIN": 2
          }
        },
        "SPILIMBERGO IN CAMMINO": {
          "voti": 671,
          "preferenze": {
            "FABIO FRENNA": 71,
            "CARLO GIACOMELLO": 57,
            "ANNA LAZZATI": 55,
            "TIZIANO TOMMASINI": 50,
            "FABIOLA GRASSETTI": 47,
            "ILARIA CIMAROSTI": 36,
            "GIANMARIA MINIGUTTI": 34,
            "ALESSANDRO SORESI": 34,
            "TIZIANA URBAN": 33,
            "SABRINA CASTELLARIN": 31,
            "FRANCESCA GAIA SOVRAN": 29,
            "NICHY D'ANDREA": 21,
            "CARMEN MARCUZZI": 21,
            "COSTANZA UBONI": 21,
            "MONICA GRAMACCIA": 19,
            "ROBERTO ROCCHI": 16,
            "GIULIANA CIMAROSTI": 12,
            "VITO GANCITANO": 9,
            "SONIA COGO": 8,
            "LUCA DORIGO": 1
          }
        },
        "CON & PER SPILIMBERGO - SARCINELLI SINDACO": {
          "voti": 564,
          "preferenze": {
            "DANIEL MARTIN": 72,
            "MARINO MARCHESIN": 68,
            "FABIO DREON": 54,
            "DIEGO CANCIAN": 30,
            "ALESSANDRA PASSANTE": 28,
            "EMILIA GUARINO": 21,
            "CHIARA DAL BO'": 19,
            "MATTIA PAVEGLIO": 19,
            "MAURO AVOLEDO": 18,
            "SILVIA VETERE ROSSI": 16,
            "LUIGIA ZAVAGNO": 13,
            "CHIARA BASSUTTI": 11,
            "TIZIANA MAIUTTO": 4,
            "ERIK FRIGO": 3,
            "FRANCESCA ZANCAN": 2,
            "CLAUDIO MARGJONAJ": 0
          }
        },
        "SPILIMBERGO DEMOCRATICA": {
          "voti": 504,
          "preferenze": {
            "GABRIELLA IUS": 107,
            "ANNA MARIA CANCIAN": 68,
            "IVO NASSIVERA": 56,
            "MATTIAS GEROMETTA": 46,
            "PIER LUIGI TAMBOSSO": 46,
            "RAFFAELE ROLLO": 45,
            "LARA MARIA DE MICHIEL": 42,
            "RAFFAELLA MANCA": 40,
            "DANIELE RIZZOTTI": 25,
            "MASSIMILIANO ROSSI": 25,
            "FELICE DI PAOLO": 21,
            "ALBERTO PELUS": 15,
            "NERINA BELTRAME": 12
          }
        },
        "VIVERE SPILIMBERGO": {
          "voti": 354,
          "preferenze": {
            "ARMANDO SPAGNOLO": 90,
            "GIUSEPPE DELLA VALLE": 46,
            "ROBERTO MONGIAT": 38,
            "ANDREA SEDRAN": 29,
            "ILARIA SALA": 23,
            "STEFANO SPAGNOLO": 21,
            "FABIO BISARO": 17,
            "SARA FABRIS": 17,
            "NIKOLAS BURIOLA": 16,
            "GIOVANNI BATTISTA SPAGNOL": 15,
            "CINZIA RUSSO": 14,
            "AURELIO BARACHINO": 10,
            "FLAVIA TURCHET": 9,
            "MARA SCARSELLA": 8,
            "VALENTINA SQUITIERI": 8,
            "ELISA BROSOLO": 7,
            "RENATA BROVEDANI": 7,
            "ILARIA RUI": 5,
            "STEFANO PASQUALETTI": 3,
            "ERIKA FRANCESCONI": 2
          }
        },
        "MOVIMENTO 5 STELLE": {
          "voti": 277,
          "preferenze": {
            "ANDREA GIANNINI": 36,
            "SHKELQIM RUKAJ": 16,
            "MARTINA DEL TOSO": 14,
            "ALFREDO PARISI": 11,
            "RAFFAELLA DE STEFANO": 9,
            "ANTONIO ZAVAGNO": 7,
            "ANDREA ZAVAGNO": 6,
            "MONIA SPINA": 5,
            "GLORIA ZUCCHIATTI": 4,
            "LINO DE ZORZI": 2,
            "LEONARDO LENA": 2,
            "PIER ROBERTO CANDERAN": 2,
            "STEFANO TAGLIABUE": 0
          }
        },
        "FRATELLI D'ITALIA - ALLEANZA NAZIONALE": {
          "voti": 268,
          "preferenze": {
            "MICHELE ZULIANI": 66,
            "ROBERTO SERRA": 21,
            "FRANCESCO FINIELLO": 19,
            "FABIO SACCAVINO": 18,
            "CARLA USALUPPI": 18,
            "ANGELO FILIPPO GIACOMO BENEVENI": 16,
            "PAOLO SARTOR": 15,
            "EVA MARCHI": 13,
            "LUISELLA PINTORE": 12,
            "MASSIMILIANO DE MICHIEL": 11,
            "MAURO GURNARI": 9,
            "MAURIZIO TOSITTI": 9,
            "NICOLA MASCI": 5,
            "ALESSANDRA TONELLI": 5,
            "LORENA BLARASIN": 0
          }
        },
        "SPILIMBERGO CIVICA": {
          "voti": 224,
          "preferenze": {
            "LUCIANO CONSALVO": 49,
            "GIUSEPPE ROSSI": 31,
            "ITALO CUBEDDU": 26,
            "KATIA AERE": 22,
            "PAOLO MARCONI": 21,
            "SERENA ZISA": 15,
            "ENRICO VIGNANDO": 14,
            "BARBARA TOPPAN": 13,
            "MARA COLAUTTI": 12,
            "DENIS SCARPANTE": 9,
            "ANDREA SOLER": 5,
            "GIANFRANCO FONDA": 4,
            "GIOVANNI PRINCIPI": 2,
            "SOFIA MONTANI": 1,
            "JUAN PEDRO BERNINI": 0,
            "DOMENICO PAPA": 0
          }
        },
        "PATTO PER SPILIMBERGO": {
          "voti": 148,
          "preferenze": {
            "PAOLO BRATTI": 25,
            "GIORGIO DAMIANO": 19,
            "WERTHER ZULIANI": 11,
            "VANIA DELLA VEDOVA": 10,
            "MIRIAM SATI": 9,
            "GIUSEPPE MIROLO": 7,
            "FABRIZIO ROMANU": 7,
            "CINZIA COZZI": 6,
            "SANDRA DREON": 4,
            "DONATELLA NUZZACI": 3,
            "PATRIZIA LEONARDUZZI": 2,
            "VINCENZO MARRELLA": 0,
            "GIOVANNI MIGLIETTA": 0
          }
        }
      }
    }
  },
  "Talmassons": {
    "sindaco": {
      "schede_bianche": 148,
      "schede_nulle": 100,
      "voti_contestati": 0,
      "voti_validi": {
        "FABRIZIO PITTON": {
          "voti": 2012,
          "liste_collegate": [
            "LISTA CIVICA PRESENTE PER TALMASSONS",
            "PER TALMASSONS",
            "FORZA TALMASSONS",
            "PUNTO DI INCONTRO"
          ]
        }
      }
    },
    "affluenza": {
      "votanti": 2260,
      "elettori": 4041
    },
    "liste": {
      "voti_contestati": 0,
      "voti_validi": {
        "PER TALMASSONS": {
          "voti": 571,
          "preferenze": {
            "DANIELE DE PAOLI": 76,
            "MARINO BATTELLO": 51,
            "MARTINA TOMAT": 25,
            "ROBERTA SONCIN": 22,
            "DANILO ZANET": 18,
            "LUCA MONTE": 14,
            "LAURA TONEATTO": 12,
            "SIMONE SACCAVINO": 10,
            "JSAC VISSA": 10,
            "ELISA FORNER": 8,
            "EMANUELE PERUZZO": 7,
            "CHRISTOPHER CALLIGARIS": 5,
            "DAVIDE PONTE": 4,
            "GIUSEPPE TURCO": 2
          }
        },
        "FORZA TALMASSONS": {
          "voti": 496,
          "preferenze": {
            "ROBERTO GRASSI": 96,
            "ELENA PONTE": 77,
            "MARZIO SIONI": 58,
            "DANIELE CINELLO": 36,
            "NICOL AMMIRATI": 23,
            "ORIETTA MARTINUZZI": 22,
            "IRENE LAZZATI": 18,
            "FABIO MUSIANI": 14,
            "GIANLUCA DEANA": 10,
            "PATRICK DRI": 10,
            "ANTONIO OLIVO": 6,
            "ELVIS ANZILE": 5
          }
        },
        "PUNTO DI INCONTRO": {
          "voti": 417,
          "preferenze": {
            "MANUEL TINON": 93,
            "CRISTINA DRI": 90,
            "GIACOMO TONEATTO": 79,
            "EMANUELA ZANIN": 75,
            "MARCO TOSIN": 66,
            "GIULIA MARIN": 38,
            "GIADA PONTE": 36,
            "ORNELLA SQUIZZATO": 21,
            "MAICOL SANT": 14,
            "STEFANO BUIANI": 10,
            "TIZIANO ZANELLO": 6,
            "FEDERICO DEANA": 3
          }
        },
        "LISTA CIVICA PRESENTE PER TALMASSONS": {
          "voti": 265,
          "preferenze": {
            "BEPPINO TURCO": 125,
            "MOIRA DEANA": 23,
            "FABRIZIO BIANCHINI": 16,
            "GUIDO CINELLO": 13,
            "PIERINO AGNOLETTI": 11,
            "LUCIANO BON": 10,
            "ERMINIA ODORICO": 8,
            "MICHELA REPEZZA": 8,
            "FILIPPO DEANA": 7,
            "RAFFAELE COSSARO": 7,
            "FAUSTA FANTINI": 6,
            "DANIELE DRI": 5,
            "UMBERTO CINAUSERO": 5,
            "FRANCESCA FANTINI": 4
          }
        }
      }
    }
  },
  "Treppo Ligosullo": {
    "sindaco": {
      "schede_bianche": 2,
      "schede_nulle": 10,
      "voti_contestati": 0,
      "voti_validi": {
        "LUIGI CORTOLEZZIS": {
          "voti": 302,
          "liste_collegate": [
            "UNITI PER TREPPOLIGOSULLO"
          ]
        },
        "MARCO PLAZZOTTA": {
          "voti": 178,
          "liste_collegate": [
            "ONESTA', LEALTA' E PASSIONE"
          ]
        }
      }
    },
    "affluenza": {
      "votanti": 492,
      "elettori": 851
    },
    "liste": {
      "voti_contestati": 0,
      "voti_validi": {
        "UNITI PER TREPPOLIGOSULLO": {
          "voti": 293,
          "preferenze": {
            "MAURO MORO": 68,
            "FABIANA MOROCUTTI": 64,
            "DARIO BELLINA": 42,
            "ANNALISA PLAZZOTTA": 42,
            "SIMONE DEL FABBRO": 35,
            "FABRIZIO CRAIGHERO": 23,
            "NARCISA ERMACORA": 22,
            "FABIO URBANO": 21,
            "FLAVIO CRAIGHERO": 17,
            "BORIS MAIERON": 12,
            "GUIDO FEDELE": 7,
            "MARZIO LAZZARA": 7
          }
        },
        "ONESTA', LEALTA' E PASSIONE": {
          "voti": 172,
          "preferenze": {
            "MICHELA BULLIANI": 48,
            "MAURIZIA PLOS": 45,
            "ENDO MOROCUTTI": 37,
            "MAICOL PLAZZOTTA": 22,
            "FRANCESCO BLARASIN": 21,
            "MANUELE TRAVERSO": 20,
            "GIUSEPPINA CALIFANO": 14,
            "ORIETTA MORO": 11,
            "MIURI DEL BON": 8,
            "GIANMARCO MISIGOI": 7,
            "MARCO MAIERON": 5,
            "ORIANA DEL FABBRO": 2
          }
        }
      }
    }
  },
  "Udine": {
    "sindaco": {
      "schede_bianche": 357,
      "schede_nulle": 686,
      "voti_contestati": 7,
      "voti_validi": {
        "PIETRO FONTANINI": {
          "voti": 18619,
          "liste_collegate": [
            "FORZA ITALIA",
            "AUTONOMIA RESPONSABILE",
            "IDENTITA' CIVICA",
            "LEGA NORD",
            "FRATELLI D'ITALIA - ALLEANZA NAZIONALE"
          ]
        },
        "VINCENZO MARTINES": {
          "voti": 16095,
          "liste_collegate": [
            "UDINE SINISTRAPERTA",
            "SIAMO UDINE CON MARTINES",
            "PROGETTO INNOVARE",
            "PARTITO DEMOCRATICO - MARTINES SINDACO"
          ]
        },
        "POMPEA MARIA ROSARIA CAPOZZI": {
          "voti": 3802,
          "liste_collegate": [
            "MOVIMENTO 5 STELLE"
          ]
        },
        "ENRICO BERTOSSI": {
          "voti": 3448,
          "liste_collegate": [
            "PRIMA UDINE BERTOSSI SINDACO",
            "FRIULI FUTURO CON BERTOSSI SINDACO"
          ]
        },
        "ANDREA VALCIC": {
          "voti": 1299,
          "liste_collegate": [
            "PATTO PER UDINE"
          ]
        },
        "STEFANO SALME'": {
          "voti": 1208,
          "liste_collegate": [
            "LISTA SALME' SINDACO-UDINE AGLI UDINESI",
            "IO AMO UDINE"
          ]
        },
        "LUCA MINESTRELLI": {
          "voti": 409,
          "liste_collegate": [
            "CASAPOUND ITALIA"
          ]
        }
      }
    },
    "affluenza": {
      "votanti": 45930,
      "elettori": 80341
    },
    "liste": {
      "voti_contestati": 4,
      "voti_validi": {
        "LEGA NORD": {
          "voti": 7777,
          "preferenze": {
            "MARIO PITTONI": 161,
            "MAURIZIO FRANZ": 142,
            "ANDREA CUNTA": 102,
            "FRANCESCA LAUDICINA": 94,
            "ALESSANDRO CIANI": 82,
            "CARLO PAVAN": 81,
            "CLAUDIA BASALDELLA": 68,
            "LORENZA IOAN": 63,
            "ENRICO ANDREUCCI FLORIO": 61,
            "ELISABETTA MARIONI": 60,
            "PIERLUIGI MEZZINI": 59,
            "ANTONIO PITTIONI": 57,
            "MARCELLO MAZZA": 56,
            "ELISA BATTAGLIA": 53,
            "PAOLO FORAMITTI": 51,
            "GIULIA FERRAMOSCA AGOSTINELLI": 49,
            "IVANA DI BETTA": 47,
            "GIULIO DRI": 41,
            "FABRIZIO BERNETTI": 38,
            "PAOLO MACORIGH": 36,
            "LARA TOSOLINI": 36,
            "GIOVANNA COMINO": 35,
            "LINO ZOTTIG-PINTOR": 29,
            "ROSSELLA MICHELIN": 26,
            "PAOLO ZULLO": 26,
            "MARIO RAGGI": 24,
            "FILIPPO TONEATTI": 22,
            "LORENZO MADARO": 21,
            "VALENTINA TURCUTTO": 21,
            "GENTILE BRUNO BRUNELLI": 13,
            "FRANCO BATTINI": 11,
            "ARIANNA DE BIAGGIO": 9,
            "VERONICA PIAZZA": 8,
            "CATERINA COMISSO": 6,
            "CRISTINA SCROSOPPI": 6,
            "ANNA CRAGNOLINI": 4,
            "DONATA CATELLI": 3,
            "DOMENICO FRESCURA": 3,
            "LUCA MATTIOLI": 3,
            "MICHELE METUS": 3
          }
        },
        "PARTITO DEMOCRATICO - MARTINES SINDACO": {
          "voti": 7186,
          "preferenze": {
            "ALESSANDRO VENANZI": 1037,
            "CINZIA DEL TORRE": 367,
            "MONICA PAVIOTTI": 359,
            "ELEONORA MELONI": 313,
            "CARLO GIACOMELLO": 262,
            "SARA ROSSO": 239,
            "PIERENRICO SCALETTARIS": 208,
            "MARIA LETIZIA BURTULO": 125,
            "CLAUDIO ROMANO": 125,
            "NERINA FABBRO": 104,
            "PAOLA LERUSSI": 98,
            "GIOVANNI SERMANN": 85,
            "CHIARA GALLO": 84,
            "MARIO BAREL": 79,
            "FRANCESCO MILANESE": 74,
            "CLAUDIO FRESCHI": 69,
            "MATTEO DELLA ROSSA": 67,
            "DOMENICO MONTANARO": 67,
            "CLEMENTINA PIANI": 64,
            "ALDO DURI'": 64,
            "STEFANO SASSET": 57,
            "ANDREA TANDELLE": 54,
            "AHMAD AKKAD": 40,
            "ANDREA ROSSI": 39,
            "ISABELLA REALE": 37,
            "LAURA PASSONI": 23,
            "MANUELA DANIEL": 21,
            "ALESSIO CALAZ": 19,
            "ALBERTO GIACOMINI": 19,
            "ANNA CLEMENTE": 18,
            "ANGELO GAGLIARDI": 18,
            "MARGHERITA SUSANNA": 15,
            "MARIANGIOLA TENCA MONTINI": 13,
            "OTTORINA CROATTO": 10,
            "NORBERTO TONINI": 10,
            "MANUEL PICCOLI": 8,
            "DOLORES FINOTTO": 6,
            "LIVIO BORTOLUZZI": 2,
            "MASSIMO BARONI": 1,
            "MASSIMO CODOGNELLO": 1
          }
        },
        "FORZA ITALIA": {
          "voti": 3472,
          "preferenze": {
            "GIOVANNI BARILLARI": 483,
            "ENRICO BERTI": 170,
            "FABRIZIO CIGOLOT": 167,
            "GIOVANNI GOVETTO": 148,
            "MIRKO BORTOLIN": 138,
            "VINCENZO TANZI": 120,
            "STEFANO CECOTTI": 106,
            "FRANCESCO CASARSA": 88,
            "MARTA FAVILLI": 73,
            "PASQUALE LAMANNA": 69,
            "RENZO PRAVISANO": 69,
            "CATERINA CASONETTO": 66,
            "CHIARA MATTELIG": 60,
            "ENZO BASSI": 34,
            "ANGELO ANDREOLI": 33,
            "ROBERTO GAVAZZA": 33,
            "FRANCESCA MAURIG": 32,
            "PROSPERO CALI'": 29,
            "ELENA VIERO": 29,
            "RENATA ZAMPA": 22,
            "DANIELE VIDAL": 21,
            "ENNIO CHIANDETTI": 18,
            "GIULIA CESCHIA": 16,
            "MARIA CISMONDI": 16,
            "RENATO FERUGLIO": 16,
            "ENRICO MAGNANI": 13,
            "DOROTEA MARISOL CALLIGARO": 8,
            "ERRICO de LUCA": 8,
            "LUIGI NARDINI": 8,
            "PAOLA PASSALENTI": 7,
            "DARIO CODARIN": 5,
            "MANUELITA DOLORES GREGORUTTI": 4,
            "ADRIANO CONTI": 3,
            "GIUSEPPINA MEDELIN": 3,
            "TERESA MONTALBANO": 1,
            "FLAVIO GALLIZIA": 0,
            "LUIGI TRULLU": 0
          }
        },
        "moVimento 5 Stelle": {
          "voti": 3197,
          "preferenze": {
            "DOMENICO LIANO": 68,
            "MARIASTEFANIA DAL PIN": 56,
            "GIUSEPPE VILLOTTA": 41,
            "LORENZO BALLOCH": 38,
            "FRANCESCA FARISCO": 27,
            "CHRISTIANNAZARIO VASCIARELLI": 24,
            "GRAZIA MARIA BIONDI": 21,
            "GIOVANNI BERTINI": 19,
            "MICHELA LONGO": 14,
            "DANIELA DE MEZZO": 13,
            "FEDERICO BOSCOLO": 10,
            "PAOLO DRI": 9,
            "ANTONIO COMELLI": 6,
            "CORRADO DELLA LIBERA": 6,
            "CARLO FABBRO": 6,
            "GINA MARQUARDI": 6,
            "MANUELA MARTINIS": 6,
            "DENNY MORGILLO": 5,
            "STEFANO CLAUTI": 4,
            "FLAVIO DEGANO": 4,
            "PIETRO RUGO": 4,
            "MARCO CARPENTIERI": 3,
            "SAULA DE CLARA": 2,
            "RAFFAELE MAZZOTTI": 2,
            "VIVIANA PUPPIN": 2,
            "ANGELO DANELAZZO": 1,
            "ORIANA DROSGHIG": 1,
            "PATRICIJA TREMUL": 1
          }
        },
        "PROGETTO INNOVARE": {
          "voti": 2701,
          "preferenze": {
            "FEDERICO ANGELO PIRONE": 656,
            "SIMONA LIGUORI": 317,
            "ANTONELLA NONINO": 301,
            "PAOLO ERMANO": 222,
            "MASSIMO CECCON": 168,
            "NICOLA PETRUCCO": 152,
            "FRANCO DELLA ROSSA": 119,
            "ALICE BUOSI": 91,
            "ISABELLE GRATTONI": 89,
            "MATTEO MANSI": 88,
            "FRANCO ALOI": 81,
            "CHIARA LOPOPOLO": 74,
            "RICCARDO COSTANTINI": 69,
            "DANIELA ROSA": 63,
            "ROBERTO PERESSON": 52,
            "DAMIANO CANTONE": 49,
            "ENRICO D'ESTE": 45,
            "VALENTINA LAZZARA": 42,
            "MONICA SOLDA'": 36,
            "IRENE VISCOVICH": 33,
            "MARIA STELLA MASETTO": 32,
            "ADALBERTO BURELLI": 29,
            "NATALIA PANONT": 28,
            "STEFANO PERULLI": 23,
            "CIRO ZORATTI": 21,
            "UMBERTO MARIN": 18,
            "SAVERIO PAPA": 16,
            "PAOLO BASSI": 11,
            "MICHELE VICARIO": 9,
            "MARTINA CASAGRANDE": 8,
            "GIORGIO MORSUT": 8,
            "MAURO MILESI": 6,
            "JEVAN JOSEPH PUDOTA": 5,
            "ANTONIO DI NINNO": 3,
            "DANIELE PIEMONTE": 3,
            "DANIELA PETRIS": 2,
            "ARIANNA ROMANO": 2,
            "TIZIANO BRAVI": 1,
            "DIANA MADALINA STAN": 1,
            "LUISA RIGO": 0
          }
        },
        "IDENTITA' CIVICA": {
          "voti": 2122,
          "preferenze": {
            "LORIS MICHELINI": 296,
            "ANTONIO FALCONE": 189,
            "MICHELE ZANOLLA": 138,
            "GIANFRANCO DELLA NEGRA": 73,
            "THOMAS VESNAVER": 63,
            "GARY DI QUAL": 57,
            "VERONICA BASELLO": 42,
            "ROBERTO FRANCESCHI": 34,
            "CLAUDIO GALLUZZO": 31,
            "BARBARA BERALDO": 29,
            "CLAUDIO CATTAROSSI": 25,
            "ANDREA FADINI": 25,
            "TANIA BORTOT": 20,
            "DARIO PAOLI": 16,
            "ANTONIETTA FELLINE": 14,
            "ROBERTO MARIUZZA": 13,
            "ANGELO ERMANNO BAZAN": 12,
            "FRANCESCO CASARELLA": 12,
            "ISABELLA ZANELLO": 12,
            "DARIA COLONELLO": 8,
            "ALESSANDRO FABRO": 7,
            "GIULIANO BINDELLA": 6,
            "MARIA ZANETTI": 6,
            "ADRIANO STOCCO": 5,
            "RICCARDO FORTUNATO": 4,
            "SANDRA RIGO": 2,
            "SAMIRA EL MSATFI": 1
          }
        },
        "SIAMO UDINE CON MARTINES": {
          "voti": 2077,
          "preferenze": {
            "LORENZO PATTI": 135,
            "RICCARDO SALVATORE RIZZA": 110,
            "ALESSANDRO TALOTTI": 101,
            "ANDREA CASTIGLIONE": 97,
            "GIORGIO ROSIGNOLI": 78,
            "ANDREA PURINAN": 63,
            "DONATELLA NONINO": 57,
            "DUCCIO VALENTE": 53,
            "CHIARA VATTOLO": 52,
            "NICCOLO' VERONESE": 52,
            "LOREDANA VIEL": 48,
            "ADRIANA OPOKU": 47,
            "BARBARA ERRICO": 43,
            "ALESSANDRO VENTURINI": 41,
            "FRANCO BIFFONI": 39,
            "GIANMARIA MARCHETTA": 35,
            "FRANCESCO GIGLIOTTI": 34,
            "MARTA PLAZZOTTA": 31,
            "ANTONELLA ELOISA GATTA": 30,
            "MARIAELENA PORZIO": 22,
            "LAURA DE LUCA": 20,
            "CIRO NAVARRA": 20,
            "VIVIANA DI DOMENICO": 17,
            "CLAUDIO DEL MESTRE": 15,
            "MAGDA PERESSUTTI": 15,
            "PATRIZIA NOVAJRA": 14,
            "LAURA FRATTASIO": 11,
            "ROBERTO ZATTI": 10,
            "ALBERTO DUCA": 8,
            "ANDREA CECCHINI": 7,
            "SERENA FRITZ": 6,
            "ANDREA CUSSIGH": 5,
            "SERGIO CASA": 4,
            "MARIO ROSARIO ROCCUZZO": 4,
            "ALESSANDRO DE VITT": 2,
            "GIOVANNI FORCIONE": 2,
            "ADRIANO GIAVON": 2,
            "GABRIELLA BOATO": 1,
            "NIVES PERESSINI": 1,
            "MARINELA ALINA SFARCIOC": 0
          }
        },
        "PRIMA UDINE BERTOSSI SINDACO": {
          "voti": 2070,
          "preferenze": {
            "GIOVANNI MARSICO": 249,
            "ALESSANDRA STELLA": 189,
            "ESTER SORAMEL": 108,
            "CRISTIANA NICOLETTI": 71,
            "ANDREA FABRIS": 66,
            "PAOLA TAM": 66,
            "FRANCESCA BERTOLI": 65,
            "SIMONETTA DAFFARRA": 57,
            "DANIELE STRIZZOLO": 56,
            "DOUGLAS DE MARCO": 55,
            "ADRIANO LUALDI": 54,
            "LAURA MANSUTTI": 50,
            "MARTA BIASUTTI": 44,
            "STEFANO GOS": 37,
            "PAOLA ZILLI": 34,
            "GIULIANO BERLOFFA": 32,
            "MARIO VICEDOMINI": 31,
            "MICHELA MAURO": 30,
            "GIANCARLO PIUBELLO": 28,
            "GIORGIO FRASSETTO": 24,
            "LORENZO PEGORARO": 22,
            "SILVIA FORMAIO": 21,
            "SERGIO MARINI": 21,
            "ANNAMARIA PERUCH": 21,
            "ALESSANDRA SPIZZO": 21,
            "FRANCESCA DELLACASA": 20,
            "TEODORA SILVIA FLUTUR": 19,
            "EMANUELA LORENZUTTI": 19,
            "GIANFILIPPO BISOGNI": 17,
            "CARMEN STRAZZERI": 15,
            "ELEONORA di CAPORIACCO": 12,
            "LUISA BINDONI": 11,
            "BRUNO RONCO": 10,
            "ALESSANDRO BERGHINZ": 8,
            "MARZIA GORINI": 8,
            "LIVIO MASTROROSA": 6,
            "FAISAL UDDIN MOHAMMAD": 6,
            "FRANCESCO FERRO": 4,
            "MARIA TOMAT": 4,
            "MIHAI TUDOR": 0
          }
        },
        "AUTONOMIA RESPONSABILE": {
          "voti": 1194,
          "preferenze": {
            "PAOLO PIZZOCARO": 203,
            "MARCO VALENTINI": 90,
            "GUGLIELMO DE PUPPI": 79,
            "ANNA CHIARANDINI": 77,
            "MICHELE PERIS": 67,
            "LUCA BLESSANO": 44,
            "SANDRO BASSI": 35,
            "DAVID GALIMI": 34,
            "STEFANO ZAMPA": 32,
            "SANDRA ZORZENONE": 29,
            "MASSIMILIANO PESSI": 29,
            "MAURIZIO ARABELLA": 23,
            "ALEX BASSO": 23,
            "SIMONE LUGANO": 23,
            "SILVIO CASANOVA": 21,
            "ROBERTO VENICA": 20,
            "CORRADO VINCITORE": 18,
            "ANNA LOMBARDI MENCHINI": 17,
            "ILARIA DOLCE": 16,
            "SILVIA RIZZELLO": 16,
            "GLAUCO VIDA": 16,
            "MAURO CARNESECCHI": 13,
            "ORIANA DA PRAT": 13,
            "CHIARA GRASSO": 13,
            "STEFANO DE CANDIDO": 12,
            "LUCIA BLONNA": 11,
            "SILVIA BOSCARELLO": 10,
            "VINCENZA ESPOSITO": 10,
            "DONATELLA MINEN": 8,
            "CINZIA TURCO": 8,
            "FRANCESCO DE SABBATA": 7,
            "LIVIO LORENZONI": 7,
            "CLAUDIO CORRA'": 5,
            "MILA MECCHIA": 4,
            "LUCA BOMBARDIER": 3,
            "VIRGIL VASILIU": 3,
            "SABRINA COMAND": 1,
            "ROBERTO DELLA MEA": 1,
            "ALESSANDRO DI GIORGIO": 0,
            "ANNALISA MODONUTTI": 0
          }
        },
        "PATTO PER UDINE": {
          "voti": 973,
          "preferenze": {
            "STEFANIA GARLATTI-COSTA": 43,
            "LUCIA BURELLO": 41,
            "CARLETTO RIZZI": 37,
            "SERGIO DE PROPHETIS": 31,
            "ALESSIO PERSIC": 25,
            "DENIS RONCALI POLO": 25,
            "FRANCESCO FONTANINI": 24,
            "ALESSANDRO CARROZZO": 22,
            "SANDRO FABBRO": 20,
            "ELISABETTA PASSONE": 18,
            "GIANNI MENEGHIN": 15,
            "OSCAR OLIVO": 11,
            "GIANNI NAZZI": 11,
            "MICHELINA CADAU": 11,
            "ANDREA VENIER": 11,
            "GIANCARLO PILLININI": 11,
            "PAOLO GALLIUSSI": 9,
            "ROGER COIANIZ": 8,
            "BARBARA MELILLA": 7,
            "MATTEO COMELLI": 6,
            "VALTER MAESTRA": 6,
            "MASSIMO BRIANESE": 6,
            "CRISTIANO URBAN": 5,
            "LORENZO MARCOLINI": 5,
            "TIZIANA TOMAT": 4,
            "ROBERTA MICHIELI": 4,
            "GIULIA VARUTTI": 4,
            "SERGIO FANTINI": 4,
            "FABRIZIO GEPPINI": 4,
            "FABIANO ROSSO": 4,
            "ANNA MULINARIS": 3,
            "AMBRA MINISINI": 3,
            "CLAUDIO VICENTINI": 3,
            "PIO BELLINA": 3,
            "MARIA BULFONI": 1,
            "GIUSEPPINA D'ANGELA": 1,
            "LODOVICO GALLIUSSI": 1,
            "ENRICO BELLUZZO": 1,
            "MARISA CLOCHIATTI": 0,
            "GIULIANO COVRE": 0
          }
        },
        "UDINE sinistraperta": {
          "voti": 913,
          "preferenze": {
            "ANDREA SANDRA": 83,
            "EMANUELE DISNAN": 73,
            "ANTONIO SORTINO": 72,
            "MARCO CUCCHINI": 50,
            "PIERPAOLO SUBER": 50,
            "CRISTINA NAZZI": 48,
            "FEDERICA DINI": 37,
            "VERONICA SAUCHELLI": 33,
            "TERESA GUERRITORE": 31,
            "SILVIA BENINI": 30,
            "GIUSEPPA VASSALLO": 29,
            "ALESSANDRA ZENAROLA": 29,
            "SONJA FERJANI": 24,
            "RODOLFO ZUCCO": 23,
            "SEBASTIANO ANZIUTTI": 18,
            "DANIELA PORTEGRANDI": 18,
            "ANTONELLA BULFONE": 17,
            "FABIANO MICELI": 16,
            "GIOVANNI ABRIOLA": 15,
            "TINO CESCHIA": 15,
            "ALESSIO VICARIO": 15,
            "MAURIZIO MENEGAZZI": 13,
            "ASSUNTA NAPPI": 11,
            "GABRIELLA CAPASSO": 9,
            "SILVIA CONTARINI": 9,
            "MASSIMILIANO COZZI": 4,
            "GADDO de ANNA": 4,
            "MARC DE LORENZI": 2,
            "SANDRA DEL FABRO": 2,
            "GIOVANNI MONTENA": 2,
            "ANTONELLA ZOSSI": 2,
            "GABRIELE DURIA": 1,
            "SKENDER JASHARI": 1,
            "ANNA TAVANO": 1,
            "WILLIAM CARLINI": 0,
            "VINCENZA CARUSO": 0,
            "MARIA CRISTINA CAUTERO": 0,
            "ENZO ORTOLAN": 0,
            "GIUSEPPINA SABATINO": 0,
            "ELENA TURCHETTI": 0
          }
        },
        "FRATELLI D'ITALIA - ALLEANZA NAZIONALE": {
          "voti": 882,
          "preferenze": {
            "LUCA ONORIO VIDONI": 68,
            "UGO FALCONE": 67,
            "PAOLO PERTUSATI": 67,
            "SALVATORE GALIOTO": 53,
            "LEARCO BERTOLI": 26,
            "BEATRICE FABBRO": 24,
            "SILVIA ANDREUZZA": 11,
            "GABRIELE SILINO": 11,
            "CLARA CASTELLINI": 10,
            "MONICA NAPOLI": 10,
            "ANDREA MARCHETTI": 8,
            "ANTONIO BERNARDI": 6,
            "ELEONORA BOTTO": 6,
            "CARLO-ALBERTO LENOCI": 6,
            "PAOLO CUTTINI": 4,
            "ANTONIO GAROFALO": 4,
            "FRANCESCO LINZI": 3,
            "ANTONIO PINTAR": 2,
            "TIZIANO PONTONI": 2,
            "GIANCARLO TAMBURLINI": 2,
            "DANIELA BARIONI": 1,
            "SOFIA DE VINCENZO": 1,
            "IDA MAGGIO": 1,
            "DANIELA MARIN": 1,
            "CATERINA MESAGLIO": 1,
            "FAUSTO POLONI": 1,
            "VALSIRO SCOTTI": 1,
            "ANNALISA COLMANO": 0,
            "IGINO DORISSA": 0,
            "LEONARDO GUERRA": 0,
            "CRISTINA SANNA": 0,
            "ANNA MARIA SIBILLA": 0
          }
        },
        "LISTA SALME' SINDACO-UDINE AGLI UDINESI": {
          "voti": 394,
          "preferenze": {
            "COSTANTINO LA MARCA": 15,
            "MANLIO BUTTAZZONI": 14,
            "LOREDANA FERRO": 11,
            "CHIARA VISINTINI": 8,
            "HASMIK GHAZARYAN": 7,
            "ROCCO STASI": 7,
            "CLAUDIO MARCHIOLI": 7,
            "GIOVANNI COSS": 6,
            "MARILENA SCIAN": 6,
            "GIORGIO CLEMENTE": 6,
            "MASSIMILIANO BASSO": 6,
            "ARIANNA LI CAUSI": 5,
            "DANIELE BULFONE": 5,
            "EMILIO LAVARONE": 5,
            "NADIA TOMASINO": 4,
            "LUCIANO FLORENIN": 4,
            "SUSANNA MARCHESAN": 4,
            "MATTEO LIOTTI": 3,
            "ANNA SUSY BELLINA": 3,
            "ANTONIO MINENNA": 3,
            "ANTONELLA DE PAOLI": 3,
            "MARINA COCCATO": 2,
            "GIOVANNA MARCHINA": 2,
            "GIANNI ZULIAN": 2,
            "ALINA RUDENKO": 2,
            "MIRKO ORGNACCO": 2,
            "MIRJANA BRESKOVIC": 2,
            "ZITA HORNOK": 1,
            "ENRICO PASSAPONTI": 1,
            "ANTONINA LO RE": 1,
            "MASSIMILIANO BATTELLO": 0,
            "IVAN SIBILLA": 0,
            "ANGELO MECCA": 0,
            "DINO BORGOBELLO": 0,
            "ELENA STANESCU": 0,
            "CRISTIAN MASULLO": 0
          }
        },
        "IO AMO UDINE": {
          "voti": 394,
          "preferenze": {
            "MATTEO LODOLO": 75,
            "GIORGIO AZZINI": 24,
            "ROSSELLA ANTICOLI": 21,
            "RICCARDO LORUSSO": 17,
            "BARBARA SABBADINI": 16,
            "AURELIO PARASOLE": 15,
            "MASSIMO POLESELLO": 13,
            "MICHELA DEGANO": 12,
            "MICHELINA SORIANO": 12,
            "LORIS BIANCO": 11,
            "MASSIMO BLASUTTO": 10,
            "DANIELA PERISSUTTI": 10,
            "ANDREA TEMPO": 10,
            "DAVIDE GORIZZIZZO": 8,
            "MARCO ZANON": 7,
            "MARIA BONIFACIO": 6,
            "ROGER DI LENARDO": 6,
            "MAURIZIO DEL TORRE": 5,
            "DARIO MARTELLO": 5,
            "IVANA BURELLO": 4,
            "CRISTIAN FERUGLIO": 4,
            "PRISCILLA GOIACH": 4,
            "LOREDANA NAVARRA": 4,
            "TIZIANO TULISSO": 4,
            "MARINA ZAROUBINA": 4,
            "PATRIZIA BARILE": 3,
            "ROBERTO MAZZONETTO": 3,
            "SVETLANA DONEA": 2,
            "EURO GORI": 2,
            "ALESSANDRO NADALINI": 2,
            "GAETANO BARBAROTTA": 1,
            "ENRICO D'ADDABBO": 1,
            "DOMENICO DI SARNO": 1,
            "VOLVENO LUCCA": 1,
            "MONICA QUICCIONE": 1,
            "MARCELLINA SCUBLA": 1,
            "AGRON SELA": 1,
            "ANNALISA BATTIGELLI": 0,
            "ADRIANO MARCHETTI": 0,
            "VIVIANA MASIERO": 0
          }
        },
        "CASAPOUND ITALIA": {
          "voti": 321,
          "preferenze": {
            "FRANCO PITTACOLO": 20,
            "ELIO CELANT": 7,
            "SIMONE LANSOTTI": 7,
            "AURORA CACCHIONI": 6,
            "MAIRA BEGO": 5,
            "NORINA VISENTIN": 5,
            "BRUNO CERNO": 5,
            "MARCO GREATTI": 4,
            "ALESSANDRO BATTISTIG": 4,
            "MATTEO BUTTUS": 3,
            "GIOVANNI MAZZULLO": 3,
            "LUCA MANTOANI": 3,
            "DAVIDE MANIACI": 2,
            "FAUSTO MARTINI": 2,
            "DENYS ZANUTTINI": 2,
            "ANDREA D'INNOCENZO": 2,
            "ENRICO NICOLO' BORTOLETTO": 2,
            "SEBASTIEN REVELANT": 2,
            "MARIA ROSSI": 1,
            "ANNA PIA MORANDINI": 1,
            "ALESSANDRO STRIZZOLO": 1,
            "PAMELA LIRUSSI": 1,
            "ALEXANDRA AUGUSTIN": 1,
            "ALEX FADI": 1,
            "SARA ZANIER": 0,
            "SERENA SANT": 0,
            "LAURA BOCCOLINI": 0,
            "DOMENICO SGUAZZINO": 0,
            "DANIA DI GIANANTONIO": 0,
            "SARA CERICCO": 0,
            "MARA BONANNI": 0,
            "ELIA MOROCUTTI": 0,
            "MARCO ZOL": 0,
            "DANIELE PAIANI": 0,
            "IVAN LUCA": 0,
            "ANDREA ALVERA'": 0,
            "TOBIAS FIOR": 0,
            "GIANLUCA STROILI": 0,
            "MARCO PAPAIS": 0,
            "ALESSANDRO VERITTI": 0
          }
        },
        "FRIULI FUTURO CON BERTOSSI SINDACO": {
          "voti": 271,
          "preferenze": {
            "FABIO SANTINI": 61,
            "ANDREA VICEDOMINI": 15,
            "ALBERTO SIGNORATO": 14,
            "MARCO BIGOTTI": 12,
            "GABRIELE DORIGO": 11,
            "PAOLO PIVIDORI": 11,
            "FRANCESCA TONINI": 8,
            "MICOL FURLANIS": 6,
            "ADRIANO MAULE": 6,
            "DANIELE MARINI": 5,
            "LORENZO POLENTES": 3,
            "ELISA DE SIMON": 3,
            "FRANCESCA GALOTTO": 3,
            "ELISABETTA PAVIOTTI": 3,
            "MICHELE TUAN": 3,
            "LEOPOLDO BONETTI": 2,
            "STEFANO CARNELUTTI": 2,
            "ANNA LIUS DELLA PIETA'": 2,
            "PAOLA PETRAZZO": 2,
            "CRISTINA CASARSA": 1,
            "MASSIMILIANO MAURIG": 1,
            "MASSIMO ANTONINI": 0,
            "SABRINA BARILE": 0,
            "GIANCARLO FUMUSO": 0,
            "ARIANNA FURFARI": 0,
            "DANIELA MARESCHI": 0,
            "ALESSIO MELZI": 0,
            "MONICA MISSANA": 0,
            "ANDREA NONINO": 0,
            "VIVIANA MANUELA OLIVATTI": 0
          }
        }
      }
    }
  },
  "Zoppola": {
    "sindaco": {
      "schede_bianche": 44,
      "schede_nulle": 70,
      "voti_contestati": 0,
      "voti_validi": {
        "FRANCESCA PAPAIS": {
          "voti": 1815,
          "liste_collegate": [
            "UN COMUNE PER TUTTI CON FRANCESCA PAPAIS"
          ]
        },
        "PIER FRANCESCO CARDENTE": {
          "voti": 703,
          "liste_collegate": [
            "CENTRO DESTRA PER CARDENTE SINDACO"
          ]
        },
        "CANDIDO DAL MAS": {
          "voti": 702,
          "liste_collegate": [
            "LEGA NORD"
          ]
        },
        "GIANNI SARTOR": {
          "voti": 549,
          "liste_collegate": [
            "AUTONOMIA RESPONSABILE CON TONDO PER SARTOR"
          ]
        },
        "ANGELO MASOTTI CRISTOFOLI": {
          "voti": 451,
          "liste_collegate": [
            "ALTERNATIVA CIVICA PER ZOPPOLA"
          ]
        }
      }
    },
    "affluenza": {
      "votanti": 4334,
      "elettori": 8189
    },
    "liste": {
      "voti_contestati": 0,
      "voti_validi": {
        "UN COMUNE PER TUTTI CON FRANCESCA PAPAIS": {
          "voti": 1516,
          "preferenze": {
            "PAOLO PIGHIN": 147,
            "LUANA PAGURA": 127,
            "ANTONELLO TIUS": 110,
            "FAUSTO ZILLI": 98,
            "LORIS MARIUTTI": 93,
            "RENATO NONIS": 79,
            "TATIANA PICCININ": 73,
            "CRISTINA MORAS": 71,
            "ERNESTO RORAI": 63,
            "MARILENA PICCIALLO": 60,
            "ILARIA MUZZO": 59,
            "ALESSANDRO QUATTRIN": 58,
            "IORICH MAZZINI": 47,
            "STEFANO PICCOLI": 33,
            "LOREDANA PARONETTO": 27,
            "BERTILLO SECONDIN": 17
          }
        },
        "CENTRO DESTRA PER CARDENTE SINDACO": {
          "voti": 655,
          "preferenze": {
            "ALESSANDRA GRIZZO": 117,
            "PAOLO MIOR": 107,
            "ANGELA MARIA POSER": 57,
            "DANIELE FRANCESCHI": 50,
            "MAURO BELLOTTO": 44,
            "GUSTAVO BOMBEN": 28,
            "MAURIZIO BOREAN": 26,
            "SIMONE GAGLIARDO": 21,
            "ANSELMO DE TONI": 18,
            "ROBERTO MARIUTTI": 16,
            "DEBORA CUSCELA": 14,
            "GIOVANNI MARANO": 10,
            "NADIA ESTERINA COLONELLO": 9,
            "ANDREA PIGHIN": 9,
            "ERIKA MONFORTE": 0
          }
        },
        "LEGA NORD": {
          "voti": 628,
          "preferenze": {
            "TARCISIO ROSSET": 49,
            "FEDERICA COLAUTTI": 16,
            "GIANNI ZILLI": 14,
            "ROSARIO FRAZZICA": 8,
            "GLORIA BASSO": 7,
            "FRANCESCA VACCARO": 7,
            "PATRICK MORELLO": 5,
            "DONATO NISTA": 4,
            "ELISA MARZIO": 3,
            "MIRIAM CANDIDO": 2,
            "PAOLO DE BORTOLI": 2,
            "LORENA RICCO'": 2,
            "MARCO SILIPIGNI": 2,
            "ANGELO LIUT": 1,
            "BRUNA ZILLE": 1,
            "JODY MODOLO": 0
          }
        },
        "AUTONOMIA RESPONSABILE CON TONDO PER SARTOR": {
          "voti": 457,
          "preferenze": {
            "GIOVANNI CECCO": 32,
            "UMBERTO SCODELLER": 32,
            "NORIS BOREAN": 26,
            "KALINKA ZANELLA": 24,
            "LUIGINA CHIANDOTTO": 16,
            "GIORGIO PAPAIS": 13,
            "DANIELE SEMINARA": 12,
            "STEFANO DARONE": 11,
            "CRISTIANA BISARO": 10,
            "RENZO MUZZIN": 9,
            "CRISTINA TAURIAN": 6,
            "DANIELA LENA": 5,
            "ANDREA FABBRO": 3,
            "FEDERICO BENEDETTI": 3,
            "CRISTINA QUATTRIN": 2,
            "FABIO BOREAN": 0
          }
        },
        "ALTERNATIVA CIVICA PER ZOPPOLA": {
          "voti": 384,
          "preferenze": {
            "ANTONIO QUATRALE": 29,
            "ALFRED ABAZAJ": 20,
            "ROBERTO BUREL": 20,
            "CLAUDIO SIMONELLA": 19,
            "MARIO CONS": 18,
            "ASSUNTA BELLOTTO": 14,
            "PAOLA IUS": 12,
            "CLAUDIO SALVADORI": 10,
            "DANNY MARCHI": 6,
            "FRANCESCO ZAMBORLINI": 4,
            "DONATA ANNA MARIA MANIGRASSO": 3,
            "ELISA PICCININ": 2,
            "KATIA SASSI": 1,
            "MAURIZIO CRISTOFOLI": 0
          }
        }
      }
    }
  }
}